<?xml version='1.0' encoding='ASCII' standalone='yes'?>
<svg xmlns="http://www.w3.org/2000/svg" xmlns:xlink="http://www.w3.org/1999/xlink" version="1.1" width="120mm" viewBox="0 0 120mm 200mm" height="200mm">
  <g transform="translate(0, 0) scale(1) "><!-- Original BoundingBox: 0.000000 -89.663544 119.551392 229.140167 -->
  <path d="M0.000000 318.663544L119.551392 318.663544L119.551392 -0.140167L0.000000 -0.140167Z" style="stroke:rgb(100.000000%,0.000000%,0.000000%); stroke-width: 0.000000;stroke-linecap: round;stroke-linejoin: round;stroke-miterlimit: 10.000000;fill: none;"/>
  <path d="M54.794388 88.028976C73.037506 88.028976,89.988281 97.446075,99.626160 112.935516L99.626160 97.991592C85.591385 91.429886,70.287308 88.028976,54.794388 88.028976C32.407928 88.028976,12.830887 103.753845,14.943924 124.392532C17.030579 144.773544,38.788223 154.310547,59.775696 159.261688C81.489548 164.384186,104.607468 173.485352,104.607468 194.130844C104.607468 215.941528,83.136398 230.494400,59.775696 230.494400C38.926254 230.494400,19.774124 219.003113,9.962616 200.606552L9.962616 215.550476C24.787613 193.065918,59.775696 203.562347,59.775696 230.494400C59.775696 268.722672,141.295609 249.380386,109.588776 189.149536C99.301208 169.607086,80.849899 155.971603,59.775696 149.299072C41.379669 143.474503,19.925232 137.572952,19.925232 119.411224C19.925232 101.408722,36.138962 88.028976,54.794388 88.028976" style="stroke:rgb(0.000000%,0.000000%,0.000000%); stroke-width: 2.988815;stroke-linecap: round;stroke-linejoin: round;stroke-miterlimit: 10.000000;fill: none;"/>
</g>
</svg>
