<?xml version="1.0" encoding="UTF-8" standalone="no"?>
<svg
   xmlns:dc="http://purl.org/dc/elements/1.1/"
   xmlns:cc="http://creativecommons.org/ns#"
   xmlns:rdf="http://www.w3.org/1999/02/22-rdf-syntax-ns#"
   xmlns:svg="http://www.w3.org/2000/svg"
   xmlns="http://www.w3.org/2000/svg"
   xmlns:sodipodi="http://sodipodi.sourceforge.net/DTD/sodipodi-0.dtd"
   xmlns:inkscape="http://www.inkscape.org/namespaces/inkscape"
   width="210mm"
   height="297mm"
   viewBox="0 0 210 297"
   version="1.1"
   id="svg8"
   inkscape:version="1.0.1 (3bc2e813f5, 2020-09-07)"
   sodipodi:docname="tests-layout.svg">
  <defs
     id="defs2" />
  <sodipodi:namedview
     id="base"
     pagecolor="#ffffff"
     bordercolor="#666666"
     borderopacity="1.0"
     inkscape:pageopacity="0.0"
     inkscape:pageshadow="2"
     inkscape:zoom="0.35"
     inkscape:cx="-253.87636"
     inkscape:cy="648.86434"
     inkscape:document-units="mm"
     inkscape:current-layer="layer1"
     inkscape:document-rotation="0"
     showgrid="false"
     inkscape:window-width="1920"
     inkscape:window-height="1043"
     inkscape:window-x="0"
     inkscape:window-y="37"
     inkscape:window-maximized="1" />
  <metadata
     id="metadata5">
    <rdf:RDF>
      <cc:Work
         rdf:about="">
        <dc:format>image/svg+xml</dc:format>
        <dc:type
           rdf:resource="http://purl.org/dc/dcmitype/StillImage" />
        <dc:title />
      </cc:Work>
    </rdf:RDF>
  </metadata>
  <g
     inkscape:label="Calque 1"
     inkscape:groupmode="layer"
     id="layer1">
    <text
       xml:space="preserve"
       style="font-size:79.7312px;line-height:0.6666;font-family:Belgika;-inkscape-font-specification:Belgika;letter-spacing:0px;word-spacing:0px;fill:none;stroke:#000000;stroke-width:0.264584px;stroke-linecap:butt;stroke-linejoin:miter;stroke-opacity:1"
       x="1123.4658"
       y="63.39674"
       id="text12"
       transform="scale(0.5734105,1.7439513)"><tspan
         sodipodi:role="line"
         id="tspan10"
         x="1123.4658"
         y="63.39674"
         style="font-style:normal;font-variant:normal;font-weight:normal;font-stretch:normal;font-size:79.7312px;font-family:Untitled1;-inkscape-font-specification:Untitled1;stroke-width:0.264584px">Aesthetics</tspan><tspan
         style="font-style:normal;font-variant:normal;font-weight:normal;font-stretch:normal;font-size:79.7312px;font-family:Untitled1;-inkscape-font-specification:Untitled1;letter-spacing:0px;word-spacing:0px;stroke-width:0.264584px"
         sodipodi:role="line"
         id="tspan18"
         x="1123.4658"
         y="119.73792"
         dx="0"
         dy="2.5"
         rotate="0 0 0 0 0 0 0">of the</tspan><tspan
         style="font-style:normal;font-variant:normal;font-weight:normal;font-stretch:normal;font-size:79.7312px;font-family:Untitled1;-inkscape-font-specification:Untitled1;stroke-width:0.264584px"
         sodipodi:role="line"
         id="tspan20"
         x="1123.4658"
         y="176.0791"
         dy="-2.0999999"
         rotate="0 0 0 0 0 0 0 0">commons</tspan></text>
    <g
       id="g240"
       transform="matrix(0.08292374,0,0,0.08292374,158.91959,9.5944165)" />
    <g
       id="g1531">
      <g
         id="g221"
         transform="matrix(0.0829659,0,0,0.17327885,10.166185,9.6097634)"
         style="stroke-width:0.691954">
        <path
           d="M 0,562.25613 H 351.6803 V -0.432343 H 0 Z"
           style="fill:none;stroke:#ff0000;stroke-width:0;stroke-linecap:round;stroke-linejoin:round;stroke-miterlimit:10"
           id="path195" />
        <path
           d="M 52.752045,401.36237 175.84015,34.735687 298.92825,401.36237"
           style="fill:none;stroke:#000000;stroke-width:3.65023;stroke-linecap:round;stroke-linejoin:round;stroke-miterlimit:10"
           id="path197" />
        <path
           d="M 175.84015,34.735687 V 87.487732 L 281.34424,401.36237"
           style="fill:none;stroke:#000000;stroke-width:3.65023;stroke-linecap:round;stroke-linejoin:round;stroke-miterlimit:10"
           id="path199" />
        <path
           d="M 87.920074,298.49591 H 246.17621"
           style="fill:none;stroke:#000000;stroke-width:3.65023;stroke-linecap:round;stroke-linejoin:round;stroke-miterlimit:10"
           id="path201" />
        <path
           d="M 57.768906,386.41522 21.100754,401.36237 H 84.403336 L 57.768906,386.41522"
           style="fill:none;stroke:#000000;stroke-width:3.65023;stroke-linecap:round;stroke-linejoin:round;stroke-miterlimit:10"
           id="path203" />
        <path
           d="m 276.32655,386.41541 -26.6336,14.94696 h 80.88659 l -36.67083,-14.94715"
           style="fill:none;stroke:#000000;stroke-width:3.65023;stroke-linecap:round;stroke-linejoin:round;stroke-miterlimit:10"
           id="path205" />
      </g>
      <path
         d="M 0,1175.085 H 246.17621 V -0.12092576 H 0 Z"
         style="fill:none;stroke:#ff0000;stroke-width:0;stroke-linecap:round;stroke-linejoin:round;stroke-miterlimit:10"
         id="path223"
         transform="matrix(0.08292374,0,0,0.08292374,158.91959,9.5944166)" />
      <path
         d="m 211.00818,771.10798 c -16.98438,43.8701 -43.48195,66.69855 -70.33606,60.59658 C 85.828186,819.24255 51.715317,707.70441 48.356049,587.48206 44.594757,452.87196 81.584778,324.89693 140.67212,324.89693 c 23.88061,0 24.40172,72.86004 43.96004,89.97684 17.18916,15.0434 26.57888,-23.57085 17.58401,-36.72518 -18.64526,-27.26728 -38.75781,-53.25166 -61.54405,-53.25166 -68.555009,0 -113.651078,145.72858 -105.50409,299.3103 5.75859,108.55717 37.737823,207.08422 87.92007,225.85993 34.23207,12.80792 68.82256,-18.25704 87.92008,-78.95918 z"
         style="fill:none;stroke:#000000;stroke-width:5.27525;stroke-linecap:round;stroke-linejoin:round;stroke-miterlimit:10"
         id="path225"
         transform="matrix(0.08292374,0,0,0.08292374,158.91959,9.5944166)" />
      <path
         d="m 184.63216,378.14859 v 0"
         style="fill:none;stroke:#000000;stroke-width:30.772;stroke-linecap:round;stroke-linejoin:round;stroke-miterlimit:10"
         id="path227"
         transform="matrix(0.08292374,0,0,0.08292374,158.91959,9.5944166)" />
      <g
         id="g256"
         transform="matrix(0.0829659,0,0,0.17327885,39.343658,9.6097617)"
         style="stroke-width:0.691954">
        <path
           d="M 0,562.25613 H 228.59219 V -0.432343 H 0 Z"
           style="fill:none;stroke:#ff0000;stroke-width:0;stroke-linecap:round;stroke-linejoin:round;stroke-miterlimit:10"
           id="path242" />
        <path
           d="m 193.42416,263.32788 c 0,-53.9089 -22.70143,-108.14171 -70.33606,-108.14171 -62.076274,0 -104.651409,59.75835 -105.504085,125.72573 -0.764847,59.17297 31.877304,115.55404 87.920075,125.72572 34.24148,6.21477 68.87582,-8.67799 87.92007,-37.80565 v 0 c -17.79765,19.65311 -44.00427,29.48059 -70.33606,26.37602 -60.103298,-7.08627 -95.781551,-68.17543 -92.316066,-131.88011 3.096191,-56.91615 39.02269,-108.66554 92.316066,-108.14171 52.67252,0.51773 87.92008,51.99767 87.92008,108.14171 H 30.772034"
           style="fill:none;stroke:#000000;stroke-width:3.65023;stroke-linecap:round;stroke-linejoin:round;stroke-miterlimit:10"
           id="path244" />
      </g>
      <path
         d="M 90.383484,107.03687 H 115.18434 V 9.53485 H 90.383484 Z"
         style="fill:none;stroke:#ff0000;stroke-width:0;stroke-linecap:round;stroke-linejoin:round;stroke-miterlimit:10"
         id="path258" />
      <path
         d="M 94.760105,18.675664 V 78.700333"
         style="fill:none;stroke:#000000;stroke-width:0.437666;stroke-linecap:round;stroke-linejoin:round;stroke-miterlimit:10"
         id="path260" />
      <path
         d="M 96.218979,78.700333 V 15.628726"
         style="fill:none;stroke:#000000;stroke-width:0.437666;stroke-linecap:round;stroke-linejoin:round;stroke-miterlimit:10"
         id="path262" />
      <path
         d="m 96.218979,46.098107 c 1.985073,-6.00964 5.257521,-9.597858 8.753241,-9.597858 3.1341,0 5.83549,4.77566 5.83549,11.121326 v 31.078758"
         style="fill:none;stroke:#000000;stroke-width:0.437666;stroke-linecap:round;stroke-linejoin:round;stroke-miterlimit:10"
         id="path264" />
      <path
         d="m 96.218979,46.098107 c 1.640384,-5.050198 4.372421,-8.074389 7.294371,-8.074389 3.02028,0 5.83549,3.759545 5.83549,9.597857 v 31.078758"
         style="fill:none;stroke:#000000;stroke-width:0.437666;stroke-linecap:round;stroke-linejoin:round;stroke-miterlimit:10"
         id="path266" />
      <path
         d="m 94.760016,76.567637 -2.625889,2.589743 h 6.710829 L 96.21849,76.567355"
         style="fill:none;stroke:#000000;stroke-width:0.437666;stroke-linecap:round;stroke-linejoin:round;stroke-miterlimit:10"
         id="path268" />
      <path
         d="m 109.3492,76.56753 -2.62634,2.58985 h 6.71083 l -2.62602,-2.58985"
         style="fill:none;stroke:#000000;stroke-width:0.437666;stroke-linecap:round;stroke-linejoin:round;stroke-miterlimit:10"
         id="path270" />
      <path
         d="m 94.760016,18.675664 h -2.625889 l 4.084852,-3.046938"
         style="fill:none;stroke:#000000;stroke-width:0.437666;stroke-linecap:round;stroke-linejoin:round;stroke-miterlimit:10"
         id="path272" />
      <path
         d="m 148.71266,107.03686 h 10.20693 V 9.5843889 h -10.20693 z"
         style="fill:none;stroke:#ff0000;stroke-width:0;stroke-linecap:round;stroke-linejoin:round;stroke-miterlimit:10"
         id="path292" />
      <path
         d="m 153.81612,18.720558 v 0"
         style="fill:none;stroke:#000000;stroke-width:1.09361;stroke-linecap:round;stroke-linejoin:round;stroke-miterlimit:10"
         id="path294" />
      <path
         d="M 153.08706,40.038287 V 78.714726"
         style="fill:none;stroke:#000000;stroke-width:0.437444;stroke-linecap:round;stroke-linejoin:round;stroke-miterlimit:10"
         id="path296" />
      <path
         d="M 154.54519,78.714726 V 36.992897"
         style="fill:none;stroke:#000000;stroke-width:0.437444;stroke-linecap:round;stroke-linejoin:round;stroke-miterlimit:10"
         id="path298" />
      <path
         d="m 153.08697,76.582982 -2.62456,2.588559 h 6.70742 l -2.62513,-2.588559"
         style="fill:none;stroke:#000000;stroke-width:0.437444;stroke-linecap:round;stroke-linejoin:round;stroke-miterlimit:10"
         id="path300" />
      <path
         d="m 153.08697,40.038287 h -2.62456 l 4.08278,-3.04539"
         style="fill:none;stroke:#000000;stroke-width:0.437444;stroke-linecap:round;stroke-linejoin:round;stroke-miterlimit:10"
         id="path302" />
      <path
         d="M 58.309014,106.92133 H 75.794755 V 9.5348427 H 58.309014 Z"
         style="fill:none;stroke:#ff0000;stroke-width:0;stroke-linecap:round;stroke-linejoin:round;stroke-miterlimit:10"
         id="path320" />
      <path
         d="m 66.323312,36.468291 c 2.668262,0 5.147505,2.876689 6.557153,7.60832 V 39.51162 c -2.052743,-2.004438 -4.291137,-3.043329 -6.557153,-3.043329 -3.274274,0 -6.137636,4.803553 -5.82858,11.10815 0.305196,6.225884 3.487498,9.1392 6.557153,10.651649 3.175896,1.56479 6.557153,4.344973 6.557153,10.651647 0,6.662613 -3.140386,11.108149 -6.557153,11.108149"
         style="fill:none;stroke:#000000;stroke-width:0.437147;stroke-linecap:round;stroke-linejoin:round;stroke-miterlimit:10"
         id="path322" />
      <path
         d="m 67.051885,79.987886 c -3.049466,0 -5.850684,-3.510295 -7.285726,-9.129984 v 4.564993 c 2.134932,3.098588 4.686689,4.697434 7.285726,4.564991 3.91867,-0.199685 7.519189,-5.202852 7.285725,-12.629814 -0.221388,-7.042833 -3.78223,-10.577146 -7.285725,-12.173311 -2.813374,-1.281752 -5.828581,-3.591688 -5.828581,-9.129983 0,-5.499312 2.371443,-9.586487 5.100008,-9.586487"
         style="fill:none;stroke:#000000;stroke-width:0.437147;stroke-linecap:round;stroke-linejoin:round;stroke-miterlimit:10"
         id="path324" />
      <path
         d="M 75.794754,107.03687 H 90.38349 V 9.53485 H 75.794754 Z"
         style="fill:none;stroke:#ff0000;stroke-width:0;stroke-linecap:round;stroke-linejoin:round;stroke-miterlimit:10"
         id="path339" />
      <path
         d="m 80.171375,33.910355 v 37.020299 c 0,5.431178 2.403584,9.397698 5.106058,9.140815 1.387765,-0.131914 2.696192,-1.388967 3.647183,-3.503983 v 0 c -1.276092,3.053631 -3.390103,3.873603 -5.106057,1.980514 -1.350266,-1.489649 -2.18831,-4.426641 -2.18831,-7.617346 V 21.722602 c 0,7.493358 -1.248188,15.23469 -4.376621,15.23469 h 10.212115"
         style="fill:none;stroke:#000000;stroke-width:0.437666;stroke-linecap:round;stroke-linejoin:round;stroke-miterlimit:10"
         id="path341" />
      <g
         id="g256-6"
         transform="matrix(0.0829659,0,0,0.17327885,115.15857,9.6097587)"
         style="stroke-width:0.691954">
        <path
           d="M 0,562.25613 H 228.59219 V -0.432343 H 0 Z"
           style="fill:none;stroke:#ff0000;stroke-width:0;stroke-linecap:round;stroke-linejoin:round;stroke-miterlimit:10"
           id="path242-7" />
        <path
           d="m 193.42416,263.32788 c 0,-53.9089 -22.70143,-108.14171 -70.33606,-108.14171 -62.076274,0 -104.651409,59.75835 -105.504085,125.72573 -0.764847,59.17297 31.877304,115.55404 87.920075,125.72572 34.24148,6.21477 68.87582,-8.67799 87.92007,-37.80565 v 0 c -17.79765,19.65311 -44.00427,29.48059 -70.33606,26.37602 -60.103298,-7.08627 -95.781551,-68.17543 -92.316066,-131.88011 3.096191,-56.91615 39.02269,-108.66554 92.316066,-108.14171 52.67252,0.51773 87.92008,51.99767 87.92008,108.14171 H 30.772034"
           style="fill:none;stroke:#000000;stroke-width:3.65023;stroke-linecap:round;stroke-linejoin:round;stroke-miterlimit:10"
           id="path244-5" />
      </g>
      <path
         d="m 134.12393,107.03687 h 14.58874 V 9.53485 h -14.58874 z"
         style="fill:none;stroke:#ff0000;stroke-width:0;stroke-linecap:round;stroke-linejoin:round;stroke-miterlimit:10"
         id="path339-5" />
      <path
         d="m 138.50055,33.910355 v 37.020299 c 0,5.431178 2.40359,9.397698 5.10606,9.140815 1.38776,-0.131914 2.69619,-1.388967 3.64718,-3.503983 v 0 c -1.27609,3.053631 -3.3901,3.873603 -5.10606,1.980514 -1.35026,-1.489649 -2.18831,-4.426641 -2.18831,-7.617346 V 21.722602 c 0,7.493358 -1.24818,15.23469 -4.37662,15.23469 h 10.21212"
         style="fill:none;stroke:#000000;stroke-width:0.437666;stroke-linecap:round;stroke-linejoin:round;stroke-miterlimit:10"
         id="path341-6" />
      <path
         d="m 179.33345,106.97089 h 17.48574 V 9.5843916 h -17.48574 z"
         style="fill:none;stroke:#ff0000;stroke-width:0;stroke-linecap:round;stroke-linejoin:round;stroke-miterlimit:10"
         id="path320-9" />
      <path
         d="m 187.34775,36.517843 c 2.66826,0 5.1475,2.876689 6.55715,7.608321 v -4.564992 c -2.05274,-2.004437 -4.29113,-3.043329 -6.55715,-3.043329 -3.27428,0 -6.13764,4.803553 -5.82858,11.108151 0.30519,6.225885 3.4875,9.139202 6.55715,10.65165 3.1759,1.564791 6.55716,4.344974 6.55716,10.651649 0,6.662614 -3.14039,11.10815 -6.55716,11.10815"
         style="fill:none;stroke:#000000;stroke-width:0.437147;stroke-linecap:round;stroke-linejoin:round;stroke-miterlimit:10"
         id="path322-1" />
      <path
         d="m 188.07632,80.037443 c -3.04946,0 -5.85068,-3.510295 -7.28572,-9.129985 v 4.564993 c 2.13493,3.098588 4.68668,4.697435 7.28572,4.564992 3.91867,-0.199685 7.51919,-5.202853 7.28573,-12.629815 -0.22139,-7.042834 -3.78223,-10.577147 -7.28573,-12.173313 -2.81337,-1.281752 -5.82858,-3.591689 -5.82858,-9.129984 0,-5.499312 2.37144,-9.586488 5.10001,-9.586488"
         style="fill:none;stroke:#000000;stroke-width:0.437147;stroke-linecap:round;stroke-linejoin:round;stroke-miterlimit:10"
         id="path324-2" />
      <path
         d="M 58.309014,204.48933 H 78.722866 V 107.03686 H 58.309014 Z"
         style="fill:none;stroke:#ff0000;stroke-width:0;stroke-linecap:round;stroke-linejoin:round;stroke-miterlimit:10"
         id="path438" />
      <path
         d="m 68.51594,133.98856 c -5.167282,0 -8.748794,10.33549 -8.748794,21.77454 0,11.43904 3.581512,21.77454 8.748794,21.77454 v 0 c 5.167281,0 8.748793,-10.3355 8.748793,-21.77454 0,-11.43905 -3.581512,-21.77454 -8.748793,-21.77454"
         style="fill:none;stroke:#000000;stroke-width:0.437444;stroke-linecap:round;stroke-linejoin:round;stroke-miterlimit:10"
         id="path440" />
      <path
         d="m 68.51594,133.98856 c -4.724619,0 -7.290661,10.77637 -7.290661,21.77454 0,10.99817 2.566042,21.77454 7.290661,21.77454"
         style="fill:none;stroke:#000000;stroke-width:0.437444;stroke-linecap:round;stroke-linejoin:round;stroke-miterlimit:10"
         id="path442" />
      <path
         d="m 68.51594,177.53764 c 4.724619,0 7.290661,-10.77637 7.290661,-21.77454 0,-10.99817 -2.566042,-21.77454 -7.290661,-21.77454"
         style="fill:none;stroke:#000000;stroke-width:0.437444;stroke-linecap:round;stroke-linejoin:round;stroke-miterlimit:10"
         id="path444" />
      <path
         d="M 78.722874,204.53888 H 93.31161 V 107.03686 H 78.722874 Z"
         style="fill:none;stroke:#ff0000;stroke-width:0;stroke-linecap:round;stroke-linejoin:round;stroke-miterlimit:10"
         id="path460" />
      <path
         d="m 89.664426,115.41594 v 0"
         style="fill:none;stroke:#000000;stroke-width:2.91774;stroke-linecap:round;stroke-linejoin:round;stroke-miterlimit:10"
         id="path462" />
      <path
         d="m 80.181748,134.45931 h 8.753241"
         style="fill:none;stroke:#000000;stroke-width:0.437666;stroke-linecap:round;stroke-linejoin:round;stroke-miterlimit:10"
         id="path464" />
      <path
         d="m 84.558369,176.65939 v -54.38784 c 0,-3.54572 1.316056,-6.50698 2.917747,-6.09387 1.757184,0.45322 3.950842,3.77478 4.37662,0 0.280496,-2.48675 -1.288507,-4.13035 -2.917747,-3.04694 -3.238832,2.15376 -5.54039,8.16242 -5.835494,15.23469 v 48.29396"
         style="fill:none;stroke:#000000;stroke-width:0.437666;stroke-linecap:round;stroke-linejoin:round;stroke-miterlimit:10"
         id="path466" />
      <path
         d="m 83.099406,174.06933 -2.625889,2.59006 h 6.710829 L 84.55788,174.0694"
         style="fill:none;stroke:#000000;stroke-width:0.437666;stroke-linecap:round;stroke-linejoin:round;stroke-miterlimit:10"
         id="path468" />
      <path
         d="M 93.311594,302.04088 H 132.70118 V 204.53886 H 93.311594 Z"
         style="fill:none;stroke:#ff0000;stroke-width:0;stroke-linecap:round;stroke-linejoin:round;stroke-miterlimit:10"
         id="path485" />
      <path
         d="m 97.688215,235.00825 v 39.15314"
         style="fill:none;stroke:#000000;stroke-width:0.437666;stroke-linecap:round;stroke-linejoin:round;stroke-miterlimit:10"
         id="path487" />
      <path
         d="M 99.147089,274.16139 V 231.96131"
         style="fill:none;stroke:#000000;stroke-width:0.437666;stroke-linecap:round;stroke-linejoin:round;stroke-miterlimit:10"
         id="path489" />
      <path
         d="m 99.147089,244.14906 c 1.022621,-7.48412 4.297351,-12.6448 8.023801,-12.6448 3.31653,0 6.56493,3.38169 6.56493,9.59786 v 33.05927"
         style="fill:none;stroke:#000000;stroke-width:0.437666;stroke-linecap:round;stroke-linejoin:round;stroke-miterlimit:10"
         id="path491" />
      <path
         d="m 107.17089,231.50426 c 2.7318,0 5.10606,4.09203 5.10606,9.59786 v 33.05927"
         style="fill:none;stroke:#000000;stroke-width:0.437666;stroke-linecap:round;stroke-linejoin:round;stroke-miterlimit:10"
         id="path493" />
      <path
         d="m 113.73582,244.14906 c 1.02263,-7.48412 4.29735,-12.6448 8.02381,-12.6448 3.31653,0 6.56493,3.38169 6.56493,9.59786 v 33.05927"
         style="fill:none;stroke:#000000;stroke-width:0.437666;stroke-linecap:round;stroke-linejoin:round;stroke-miterlimit:10"
         id="path495" />
      <path
         d="m 121.75963,231.50426 c 2.7318,0 5.10606,4.09203 5.10606,9.59786 v 33.05927"
         style="fill:none;stroke:#000000;stroke-width:0.437666;stroke-linecap:round;stroke-linejoin:round;stroke-miterlimit:10"
         id="path497" />
      <path
         d="m 97.688126,271.57152 -2.625889,2.58987 h 6.710833 l -2.62647,-2.58987"
         style="fill:none;stroke:#000000;stroke-width:0.437666;stroke-linecap:round;stroke-linejoin:round;stroke-miterlimit:10"
         id="path499" />
      <path
         d="m 112.27731,271.57154 -2.62634,2.58985 h 6.71083 l -2.62602,-2.58985"
         style="fill:none;stroke:#000000;stroke-width:0.437666;stroke-linecap:round;stroke-linejoin:round;stroke-miterlimit:10"
         id="path501" />
      <path
         d="m 126.86538,271.57154 -2.62567,2.58985 h 6.71083 l -2.62558,-2.58985"
         style="fill:none;stroke:#000000;stroke-width:0.437666;stroke-linecap:round;stroke-linejoin:round;stroke-miterlimit:10"
         id="path503" />
      <path
         d="m 97.688126,235.00825 h -2.625889 l 4.084852,-3.04694"
         style="fill:none;stroke:#000000;stroke-width:0.437666;stroke-linecap:round;stroke-linejoin:round;stroke-miterlimit:10"
         id="path505" />
      <path
         d="m 153.11503,302.04088 h 24.80085 v -97.50202 h -24.80085 z"
         style="fill:none;stroke:#ff0000;stroke-width:0;stroke-linecap:round;stroke-linejoin:round;stroke-miterlimit:10"
         id="path528" />
      <path
         d="m 157.49165,232.41835 v 41.286"
         style="fill:none;stroke:#000000;stroke-width:0.437666;stroke-linecap:round;stroke-linejoin:round;stroke-miterlimit:10"
         id="path530" />
      <path
         d="m 158.95052,244.14906 c 1.02263,-7.48412 4.29735,-12.6448 8.02381,-12.6448 3.31653,0 6.56493,3.38169 6.56493,9.59786 v 32.60223"
         style="fill:none;stroke:#000000;stroke-width:0.437666;stroke-linecap:round;stroke-linejoin:round;stroke-miterlimit:10"
         id="path532" />
      <path
         d="m 166.97433,231.50426 c 2.7318,0 5.10606,4.09203 5.10606,9.59786 v 32.60223"
         style="fill:none;stroke:#000000;stroke-width:0.437666;stroke-linecap:round;stroke-linejoin:round;stroke-miterlimit:10"
         id="path534" />
      <path
         d="M 158.95052,273.70435 V 231.96131"
         style="fill:none;stroke:#000000;stroke-width:0.437666;stroke-linecap:round;stroke-linejoin:round;stroke-miterlimit:10"
         id="path536" />
      <path
         d="m 157.49156,271.57153 -2.62589,2.58986 h 6.71083 l -2.62646,-2.58987"
         style="fill:none;stroke:#000000;stroke-width:0.437666;stroke-linecap:round;stroke-linejoin:round;stroke-miterlimit:10"
         id="path538" />
      <path
         d="m 172.08074,271.57154 -2.62633,2.58985 h 6.71083 l -2.62602,-2.58985"
         style="fill:none;stroke:#000000;stroke-width:0.437666;stroke-linecap:round;stroke-linejoin:round;stroke-miterlimit:10"
         id="path540" />
      <path
         d="m 157.49156,235.00821 -2.62589,-2.58986 4.08485,-0.45704"
         style="fill:none;stroke:#000000;stroke-width:0.437666;stroke-linecap:round;stroke-linejoin:round;stroke-miterlimit:10"
         id="path542" />
      <path
         d="m 115.18434,204.53887 h 24.80085 v -97.50202 h -24.80085 z"
         style="fill:none;stroke:#ff0000;stroke-width:0;stroke-linecap:round;stroke-linejoin:round;stroke-miterlimit:10"
         id="path258-6" />
      <path
         d="m 119.56096,116.17767 v 60.02467"
         style="fill:none;stroke:#000000;stroke-width:0.437666;stroke-linecap:round;stroke-linejoin:round;stroke-miterlimit:10"
         id="path260-0" />
      <path
         d="M 121.01983,176.20234 V 113.13073"
         style="fill:none;stroke:#000000;stroke-width:0.437666;stroke-linecap:round;stroke-linejoin:round;stroke-miterlimit:10"
         id="path262-6" />
      <path
         d="m 121.01983,143.60011 c 1.98508,-6.00964 5.25753,-9.59786 8.75325,-9.59786 3.13409,0 5.83549,4.77566 5.83549,11.12133 v 31.07876"
         style="fill:none;stroke:#000000;stroke-width:0.437666;stroke-linecap:round;stroke-linejoin:round;stroke-miterlimit:10"
         id="path264-2" />
      <path
         d="m 121.01983,143.60011 c 1.64039,-5.0502 4.37243,-8.07439 7.29437,-8.07439 3.02029,0 5.8355,3.75955 5.8355,9.59786 v 31.07876"
         style="fill:none;stroke:#000000;stroke-width:0.437666;stroke-linecap:round;stroke-linejoin:round;stroke-miterlimit:10"
         id="path266-6" />
      <path
         d="m 119.56087,174.06964 -2.62589,2.58974 h 6.71083 l -2.62646,-2.59002"
         style="fill:none;stroke:#000000;stroke-width:0.437666;stroke-linecap:round;stroke-linejoin:round;stroke-miterlimit:10"
         id="path268-1" />
      <path
         d="m 134.15005,174.06953 -2.62633,2.58985 h 6.71083 l -2.62602,-2.58985"
         style="fill:none;stroke:#000000;stroke-width:0.437666;stroke-linecap:round;stroke-linejoin:round;stroke-miterlimit:10"
         id="path270-8" />
      <path
         d="m 119.56087,116.17767 h -2.62589 l 4.08485,-3.04694"
         style="fill:none;stroke:#000000;stroke-width:0.437666;stroke-linecap:round;stroke-linejoin:round;stroke-miterlimit:10"
         id="path272-7" />
      <path
         d="m 100.5956,204.53887 h 14.58874 V 107.03685 H 100.5956 Z"
         style="fill:none;stroke:#ff0000;stroke-width:0;stroke-linecap:round;stroke-linejoin:round;stroke-miterlimit:10"
         id="path339-2" />
      <path
         d="m 104.97222,131.41236 v 37.0203 c 0,5.43118 2.40359,9.3977 5.10606,9.14081 1.38776,-0.13191 2.69619,-1.38896 3.64718,-3.50398 v 0 c -1.27609,3.05363 -3.3901,3.8736 -5.10606,1.98051 -1.35026,-1.48965 -2.18831,-4.42664 -2.18831,-7.61734 v -49.20805 c 0,7.49335 -1.24818,15.23469 -4.37662,15.23469 h 10.21212"
         style="fill:none;stroke:#000000;stroke-width:0.437666;stroke-linecap:round;stroke-linejoin:round;stroke-miterlimit:10"
         id="path341-0" />
      <g
         id="g256-6-3"
         transform="matrix(0.0829659,0,0,0.17327885,139.95942,107.11177)"
         style="stroke-width:0.691954">
        <path
           d="M 0,562.25613 H 228.59219 V -0.432343 H 0 Z"
           style="fill:none;stroke:#ff0000;stroke-width:0;stroke-linecap:round;stroke-linejoin:round;stroke-miterlimit:10"
           id="path242-7-7" />
        <path
           d="m 193.42416,263.32788 c 0,-53.9089 -22.70143,-108.14171 -70.33606,-108.14171 -62.076274,0 -104.651409,59.75835 -105.504085,125.72573 -0.764847,59.17297 31.877304,115.55404 87.920075,125.72572 34.24148,6.21477 68.87582,-8.67799 87.92007,-37.80565 v 0 c -17.79765,19.65311 -44.00427,29.48059 -70.33606,26.37602 -60.103298,-7.08627 -95.781551,-68.17543 -92.316066,-131.88011 3.096191,-56.91615 39.02269,-108.66554 92.316066,-108.14171 52.67252,0.51773 87.92008,51.99767 87.92008,108.14171 H 30.772034"
           style="fill:none;stroke:#000000;stroke-width:3.65023;stroke-linecap:round;stroke-linejoin:round;stroke-miterlimit:10"
           id="path244-5-5" />
      </g>
      <path
         d="M 13.094315,301.99135 H 33.508167 V 204.53888 H 13.094315 Z"
         style="fill:none;stroke:#ff0000;stroke-width:0;stroke-linecap:round;stroke-linejoin:round;stroke-miterlimit:10"
         id="path223-2" />
      <path
         d="m 30.591902,268.49207 c -1.408408,3.63787 -3.605685,5.53089 -5.832529,5.02489 -4.547864,-1.03339 -7.37663,-10.28255 -7.655194,-20.25184 -0.3119,-11.16237 2.755451,-21.77454 7.655194,-21.77454 1.98027,0 2.023482,6.04183 3.645331,7.46121 1.42539,1.24746 2.20402,-1.95458 1.458132,-3.04538 -1.546135,-2.26111 -3.213942,-4.41583 -5.103463,-4.41583 -5.684837,0 -9.424372,12.08436 -8.748793,24.81993 0.477523,9.00196 3.129361,17.1722 7.290661,18.72915 2.838651,1.06208 5.707024,-1.51394 7.290661,-6.54759 z"
         style="fill:none;stroke:#000000;stroke-width:0.437444;stroke-linecap:round;stroke-linejoin:round;stroke-miterlimit:10"
         id="path225-2" />
      <path
         d="m 28.404704,235.90641 v 0"
         style="fill:none;stroke:#000000;stroke-width:2.55173;stroke-linecap:round;stroke-linejoin:round;stroke-miterlimit:10"
         id="path227-8" />
      <path
         d="M 33.508168,301.99135 H 53.92202 V 204.53888 H 33.508168 Z"
         style="fill:none;stroke:#ff0000;stroke-width:0;stroke-linecap:round;stroke-linejoin:round;stroke-miterlimit:10"
         id="path438-7" />
      <path
         d="m 43.715094,231.49058 c -5.167282,0 -8.748794,10.33549 -8.748794,21.77454 0,11.43904 3.581512,21.77454 8.748794,21.77454 v 0 c 5.167281,0 8.748793,-10.3355 8.748793,-21.77454 0,-11.43905 -3.581512,-21.77454 -8.748793,-21.77454"
         style="fill:none;stroke:#000000;stroke-width:0.437444;stroke-linecap:round;stroke-linejoin:round;stroke-miterlimit:10"
         id="path440-3" />
      <path
         d="m 43.715094,231.49058 c -4.724619,0 -7.290661,10.77637 -7.290661,21.77454 0,10.99817 2.566042,21.77454 7.290661,21.77454"
         style="fill:none;stroke:#000000;stroke-width:0.437444;stroke-linecap:round;stroke-linejoin:round;stroke-miterlimit:10"
         id="path442-6" />
      <path
         d="m 43.715094,275.03966 c 4.724619,0 7.290661,-10.77637 7.290661,-21.77454 0,-10.99817 -2.566042,-21.77454 -7.290661,-21.77454"
         style="fill:none;stroke:#000000;stroke-width:0.437444;stroke-linecap:round;stroke-linejoin:round;stroke-miterlimit:10"
         id="path444-1" />
      <path
         d="M 53.922015,302.04088 H 93.311603 V 204.53886 H 53.922015 Z"
         style="fill:none;stroke:#ff0000;stroke-width:0;stroke-linecap:round;stroke-linejoin:round;stroke-miterlimit:10"
         id="path485-9" />
      <path
         d="m 58.298636,235.00825 v 39.15314"
         style="fill:none;stroke:#000000;stroke-width:0.437666;stroke-linecap:round;stroke-linejoin:round;stroke-miterlimit:10"
         id="path487-3" />
      <path
         d="M 59.75751,274.16139 V 231.96131"
         style="fill:none;stroke:#000000;stroke-width:0.437666;stroke-linecap:round;stroke-linejoin:round;stroke-miterlimit:10"
         id="path489-1" />
      <path
         d="m 59.75751,244.14906 c 1.022621,-7.48412 4.297346,-12.6448 8.023804,-12.6448 3.316531,0 6.564932,3.38169 6.564932,9.59786 v 33.05927"
         style="fill:none;stroke:#000000;stroke-width:0.437666;stroke-linecap:round;stroke-linejoin:round;stroke-miterlimit:10"
         id="path491-9" />
      <path
         d="m 67.781314,231.50426 c 2.731802,0 5.106058,4.09203 5.106058,9.59786 v 33.05927"
         style="fill:none;stroke:#000000;stroke-width:0.437666;stroke-linecap:round;stroke-linejoin:round;stroke-miterlimit:10"
         id="path493-4" />
      <path
         d="m 74.346246,244.14906 c 1.022621,-7.48412 4.297346,-12.6448 8.023805,-12.6448 3.31653,0 6.564931,3.38169 6.564931,9.59786 v 33.05927"
         style="fill:none;stroke:#000000;stroke-width:0.437666;stroke-linecap:round;stroke-linejoin:round;stroke-miterlimit:10"
         id="path495-7" />
      <path
         d="m 82.370051,231.50426 c 2.731801,0 5.106057,4.09203 5.106057,9.59786 v 33.05927"
         style="fill:none;stroke:#000000;stroke-width:0.437666;stroke-linecap:round;stroke-linejoin:round;stroke-miterlimit:10"
         id="path497-8" />
      <path
         d="m 58.298547,271.57152 -2.625889,2.58987 h 6.710829 l -2.626466,-2.58987"
         style="fill:none;stroke:#000000;stroke-width:0.437666;stroke-linecap:round;stroke-linejoin:round;stroke-miterlimit:10"
         id="path499-4" />
      <path
         d="m 72.887728,271.57154 -2.626334,2.58985 h 6.71083 l -2.626023,-2.58985"
         style="fill:none;stroke:#000000;stroke-width:0.437666;stroke-linecap:round;stroke-linejoin:round;stroke-miterlimit:10"
         id="path501-5" />
      <path
         d="m 87.475797,271.57154 -2.625667,2.58985 h 6.71083 l -2.625578,-2.58985"
         style="fill:none;stroke:#000000;stroke-width:0.437666;stroke-linecap:round;stroke-linejoin:round;stroke-miterlimit:10"
         id="path503-0" />
      <path
         d="m 58.298547,235.00825 h -2.625889 l 4.084852,-3.04694"
         style="fill:none;stroke:#000000;stroke-width:0.437666;stroke-linecap:round;stroke-linejoin:round;stroke-miterlimit:10"
         id="path505-3" />
      <path
         d="m 132.70119,301.99135 h 20.41385 v -97.45247 h -20.41385 z"
         style="fill:none;stroke:#ff0000;stroke-width:0;stroke-linecap:round;stroke-linejoin:round;stroke-miterlimit:10"
         id="path438-7-1" />
      <path
         d="m 142.90812,231.49058 c -5.16729,0 -8.7488,10.33549 -8.7488,21.77454 0,11.43904 3.58151,21.77454 8.7488,21.77454 v 0 c 5.16728,0 8.74879,-10.3355 8.74879,-21.77454 0,-11.43905 -3.58151,-21.77454 -8.74879,-21.77454"
         style="fill:none;stroke:#000000;stroke-width:0.437444;stroke-linecap:round;stroke-linejoin:round;stroke-miterlimit:10"
         id="path440-3-0" />
      <path
         d="m 142.90812,231.49058 c -4.72462,0 -7.29067,10.77637 -7.29067,21.77454 0,10.99817 2.56605,21.77454 7.29067,21.77454"
         style="fill:none;stroke:#000000;stroke-width:0.437444;stroke-linecap:round;stroke-linejoin:round;stroke-miterlimit:10"
         id="path442-6-6" />
      <path
         d="m 142.90812,275.03966 c 4.72461,0 7.29066,-10.77637 7.29066,-21.77454 0,-10.99817 -2.56605,-21.77454 -7.29066,-21.77454"
         style="fill:none;stroke:#000000;stroke-width:0.437444;stroke-linecap:round;stroke-linejoin:round;stroke-miterlimit:10"
         id="path444-1-3" />
      <path
         d="m 177.91589,302.0409 h 17.48574 v -97.38651 h -17.48574 z"
         style="fill:none;stroke:#ff0000;stroke-width:0;stroke-linecap:round;stroke-linejoin:round;stroke-miterlimit:10"
         id="path320-6" />
      <path
         d="m 185.93019,231.58784 c 2.66826,0 5.1475,2.87669 6.55715,7.60833 v -4.565 c -2.05274,-2.00443 -4.29113,-3.04333 -6.55715,-3.04333 -3.27428,0 -6.13764,4.80356 -5.82858,11.10816 0.30519,6.22588 3.4875,9.1392 6.55715,10.65165 3.1759,1.56479 6.55716,4.34497 6.55716,10.65164 0,6.66262 -3.14039,11.10815 -6.55716,11.10815"
         style="fill:none;stroke:#000000;stroke-width:0.437147;stroke-linecap:round;stroke-linejoin:round;stroke-miterlimit:10"
         id="path322-15" />
      <path
         d="m 186.65876,275.10744 c -3.04946,0 -5.85068,-3.51029 -7.28572,-9.12998 v 4.56499 c 2.13493,3.09859 4.68668,4.69744 7.28572,4.56499 3.91867,-0.19968 7.51919,-5.20285 7.28573,-12.62981 -0.22139,-7.04284 -3.78223,-10.57715 -7.28573,-12.17331 -2.81337,-1.28176 -5.82858,-3.59169 -5.82858,-9.12999 0,-5.49931 2.37144,-9.58649 5.10001,-9.58649"
         style="fill:none;stroke:#000000;stroke-width:0.437147;stroke-linecap:round;stroke-linejoin:round;stroke-miterlimit:10"
         id="path324-5" />
    </g>
    <g
       id="g1317"
       transform="translate(-852.44611,-666.8102)">
      <g
         id="g362-4"
         transform="matrix(0.40686069,0,0,0.40686069,475.15402,793.03729)">
        <g
           id="g221-7"
           transform="matrix(0.26490746,0,0,0.26490746,-152.4147,-485.65375)">
          <path
             d="M 0,562.25613 H 351.6803 V -0.432343 H 0 Z"
             style="fill:none;stroke:#ff0000;stroke-width:0;stroke-linecap:round;stroke-linejoin:round;stroke-miterlimit:10"
             id="path195-6" />
          <path
             d="M 52.752045,401.36237 175.84015,34.735687 298.92825,401.36237"
             style="fill:none;stroke:#000000;stroke-width:5.27525;stroke-linecap:round;stroke-linejoin:round;stroke-miterlimit:10"
             id="path197-5" />
          <path
             d="M 175.84015,34.735687 V 87.487732 L 281.34424,401.36237"
             style="fill:none;stroke:#000000;stroke-width:5.27525;stroke-linecap:round;stroke-linejoin:round;stroke-miterlimit:10"
             id="path199-6" />
          <path
             d="M 87.920074,298.49591 H 246.17621"
             style="fill:none;stroke:#000000;stroke-width:5.27525;stroke-linecap:round;stroke-linejoin:round;stroke-miterlimit:10"
             id="path201-9" />
          <path
             d="M 57.768906,386.41522 21.100754,401.36237 H 84.403336 L 57.768906,386.41522"
             style="fill:none;stroke:#000000;stroke-width:5.27525;stroke-linecap:round;stroke-linejoin:round;stroke-miterlimit:10"
             id="path203-3" />
          <path
             d="m 276.32655,386.41541 -26.6336,14.94696 h 80.88659 l -36.67083,-14.94715"
             style="fill:none;stroke:#000000;stroke-width:5.27525;stroke-linecap:round;stroke-linejoin:round;stroke-miterlimit:10"
             id="path205-7" />
        </g>
      </g>
      <g
         id="g240-4"
         transform="matrix(0.10772567,0,0,0.10772567,606.38701,595.47466)">
        <path
           d="M 0,562.25613 H 246.17621 V -0.432343 H 0 Z"
           style="fill:none;stroke:#ff0000;stroke-width:0;stroke-linecap:round;stroke-linejoin:round;stroke-miterlimit:10"
           id="path223-5" />
        <path
           d="m 211.00818,368.83197 c -16.98438,21.005 -43.48195,31.93526 -70.33606,29.01364 C 85.828186,391.8788 51.715317,338.47435 48.356049,280.9119 44.594757,216.4606 81.584778,155.18617 140.67212,155.18617 c 23.88061,0 24.40172,34.88538 43.96004,43.0809 17.18916,7.20278 26.57888,-11.28572 17.58401,-17.58401 -18.64526,-13.05557 -38.75781,-25.49689 -61.54405,-25.49689 -68.555009,0 -113.651078,69.77483 -105.50409,143.30974 5.75859,51.97716 37.737823,99.1519 87.92007,108.14171 34.23207,6.13243 68.82256,-8.74147 87.92008,-37.80565 z"
           style="fill:none;stroke:#000000;stroke-width:5.27525;stroke-linecap:round;stroke-linejoin:round;stroke-miterlimit:10"
           id="path225-25" />
        <path
           d="m 184.63216,180.68306 v 0"
           style="fill:none;stroke:#000000;stroke-width:30.772;stroke-linecap:round;stroke-linejoin:round;stroke-miterlimit:10"
           id="path227-4" />
      </g>
      <g
         id="g367-7"
         transform="matrix(0.40686069,0,0,0.40686069,493.5072,560.5164)">
        <g
           id="g256-4"
           transform="matrix(0.26490746,0,0,0.26490746,-104.36122,85.846248)">
          <path
             d="M 0,562.25613 H 228.59219 V -0.432343 H 0 Z"
             style="fill:none;stroke:#ff0000;stroke-width:0;stroke-linecap:round;stroke-linejoin:round;stroke-miterlimit:10"
             id="path242-4" />
          <path
             d="m 193.42416,263.32788 c 0,-53.9089 -22.70143,-108.14171 -70.33606,-108.14171 -62.076274,0 -104.651409,59.75835 -105.504085,125.72573 -0.764847,59.17297 31.877304,115.55404 87.920075,125.72572 34.24148,6.21477 68.87582,-8.67799 87.92007,-37.80565 v 0 c -17.79765,19.65311 -44.00427,29.48059 -70.33606,26.37602 -60.103298,-7.08627 -95.781551,-68.17543 -92.316066,-131.88011 3.096191,-56.91615 39.02269,-108.66554 92.316066,-108.14171 52.67252,0.51773 87.92008,51.99767 87.92008,108.14171 H 30.772034"
             style="fill:none;stroke:#000000;stroke-width:5.27525;stroke-linecap:round;stroke-linejoin:round;stroke-miterlimit:10"
             id="path244-3" />
        </g>
      </g>
      <g
         id="g290-0"
         transform="matrix(0.10778043,0,0,0.10778043,517.35222,595.44387)">
        <path
           d="M 0,562.25613 H 298.92825 V -0.432343 H 0 Z"
           style="fill:none;stroke:#ff0000;stroke-width:0;stroke-linecap:round;stroke-linejoin:round;stroke-miterlimit:10"
           id="path258-7" />
        <path
           d="M 52.752045,52.319702 V 398.72473"
           style="fill:none;stroke:#000000;stroke-width:5.27525;stroke-linecap:round;stroke-linejoin:round;stroke-miterlimit:10"
           id="path260-8" />
        <path
           d="M 70.33606,398.72473 V 34.735687"
           style="fill:none;stroke:#000000;stroke-width:5.27525;stroke-linecap:round;stroke-linejoin:round;stroke-miterlimit:10"
           id="path262-68" />
        <path
           d="m 70.33606,210.57584 c 23.926376,-34.6819 63.36971,-55.38967 105.50409,-55.38967 37.77571,0 70.33606,27.56055 70.33606,64.18167 v 179.35689"
           style="fill:none;stroke:#000000;stroke-width:5.27525;stroke-linecap:round;stroke-linejoin:round;stroke-miterlimit:10"
           id="path264-8" />
        <path
           d="m 70.33606,210.57584 c 19.771789,-29.14492 52.70148,-46.59766 87.92007,-46.59766 36.40392,0 70.33606,21.6965 70.33606,55.38966 v 179.35689"
           style="fill:none;stroke:#000000;stroke-width:5.27525;stroke-linecap:round;stroke-linejoin:round;stroke-miterlimit:10"
           id="path266-4" />
        <path
           d="M 52.750977,386.41685 21.100754,401.36237 H 101.98735 L 70.33017,386.41522"
           style="fill:none;stroke:#000000;stroke-width:5.27525;stroke-linecap:round;stroke-linejoin:round;stroke-miterlimit:10"
           id="path268-3" />
        <path
           d="m 228.59648,386.41623 -31.65558,14.94614 h 80.8866 l -31.65183,-14.94614"
           style="fill:none;stroke:#000000;stroke-width:5.27525;stroke-linecap:round;stroke-linejoin:round;stroke-miterlimit:10"
           id="path270-1" />
        <path
           d="M 52.750977,52.319702 H 21.100754 L 70.33606,34.735687"
           style="fill:none;stroke:#000000;stroke-width:5.27525;stroke-linecap:round;stroke-linejoin:round;stroke-miterlimit:10"
           id="path272-4" />
      </g>
      <g
         id="g318-9"
         transform="matrix(0.10772567,0,0,0.10772567,593.12726,595.47466)">
        <path
           d="M 0,562.25613 H 123.0881 V -0.432343 H 0 Z"
           style="fill:none;stroke:#ff0000;stroke-width:0;stroke-linecap:round;stroke-linejoin:round;stroke-miterlimit:10"
           id="path292-2" />
        <path
           d="m 61.544052,52.319702 v 0"
           style="fill:none;stroke:#000000;stroke-width:13.1881;stroke-linecap:round;stroke-linejoin:round;stroke-miterlimit:10"
           id="path294-0" />
        <path
           d="M 52.752045,175.40781 V 398.72473"
           style="fill:none;stroke:#000000;stroke-width:5.27525;stroke-linecap:round;stroke-linejoin:round;stroke-miterlimit:10"
           id="path296-6" />
        <path
           d="M 70.33606,398.72473 V 157.82379"
           style="fill:none;stroke:#000000;stroke-width:5.27525;stroke-linecap:round;stroke-linejoin:round;stroke-miterlimit:10"
           id="path298-8" />
        <path
           d="M 52.750977,386.41609 21.100754,401.36237 H 101.98735 L 70.33017,386.41609"
           style="fill:none;stroke:#000000;stroke-width:5.27525;stroke-linecap:round;stroke-linejoin:round;stroke-miterlimit:10"
           id="path300-9" />
        <path
           d="M 52.750977,175.40781 H 21.100754 L 70.33606,157.82379"
           style="fill:none;stroke:#000000;stroke-width:5.27525;stroke-linecap:round;stroke-linejoin:round;stroke-miterlimit:10"
           id="path302-2" />
      </g>
      <g
         id="g337-6"
         transform="matrix(0.10765273,0,0,0.10765273,475.68449,595.44381)">
        <path
           d="M 0,562.25613 H 211.00818 V -0.432343 H 0 Z"
           style="fill:none;stroke:#ff0000;stroke-width:0;stroke-linecap:round;stroke-linejoin:round;stroke-miterlimit:10"
           id="path320-64" />
        <path
           d="m 96.712082,155.18617 c 32.199098,0 62.117218,16.62119 79.128068,43.96004 v -26.37602 c -24.77136,-11.58142 -51.78305,-17.58402 -79.128068,-17.58402 -39.512116,0 -74.065567,27.7544 -70.33606,64.18167 3.682938,35.97248 42.08519,52.8053 79.128068,61.54406 38.32495,9.04119 79.12807,25.10478 79.12807,61.54405 0,38.49585 -37.89643,64.18167 -79.12807,64.18167"
           style="fill:none;stroke:#000000;stroke-width:5.27525;stroke-linecap:round;stroke-linejoin:round;stroke-miterlimit:10"
           id="path322-9" />
        <path
           d="m 105.50409,406.63762 c -36.799256,0 -70.602784,-20.2821 -87.920075,-52.75205 v 26.37603 c 25.763168,17.9033 56.556351,27.14126 87.920075,26.37602 47.28833,-1.15376 90.73738,-30.06151 87.92007,-72.97368 -2.67158,-40.69272 -45.64184,-61.11359 -87.92007,-70.33606 -33.950226,-7.40582 -70.33606,-20.75238 -70.33606,-52.75204 0,-31.77442 28.617248,-55.38967 61.544052,-55.38967"
           style="fill:none;stroke:#000000;stroke-width:5.27525;stroke-linecap:round;stroke-linejoin:round;stroke-miterlimit:10"
           id="path324-50" />
      </g>
      <g
         id="g353-4"
         transform="matrix(0.10778043,0,0,0.10778043,498.40009,595.44387)">
        <path
           d="M 0,562.25613 H 175.84015 V -0.432343 H 0 Z"
           style="fill:none;stroke:#ff0000;stroke-width:0;stroke-linecap:round;stroke-linejoin:round;stroke-miterlimit:10"
           id="path339-8" />
        <path
           d="m 52.752045,140.23978 v 213.64579 c 0,31.34357 28.970749,54.23453 61.544055,52.75205 16.72694,-0.76128 32.49759,-8.01579 43.96003,-20.22164 v 0 c -15.38092,17.62264 -40.8614,22.35473 -61.544048,11.42963 C 80.437134,389.24878 70.33606,372.29927 70.33606,353.88557 V 69.903717 c 0,43.244503 -15.044587,87.920073 -52.752045,87.920073 H 140.67212"
           style="fill:none;stroke:#000000;stroke-width:5.27525;stroke-linecap:round;stroke-linejoin:round;stroke-miterlimit:10"
           id="path341-7" />
      </g>
      <g
         id="g367-3-1"
         transform="matrix(0.40686069,0,0,0.40686069,591.99785,560.5164)">
        <g
           id="g256-6-7"
           transform="matrix(0.26490746,0,0,0.26490746,-104.36122,85.846248)">
          <path
             d="M 0,562.25613 H 228.59219 V -0.432343 H 0 Z"
             style="fill:none;stroke:#ff0000;stroke-width:0;stroke-linecap:round;stroke-linejoin:round;stroke-miterlimit:10"
             id="path242-7-2" />
          <path
             d="m 193.42416,263.32788 c 0,-53.9089 -22.70143,-108.14171 -70.33606,-108.14171 -62.076274,0 -104.651409,59.75835 -105.504085,125.72573 -0.764847,59.17297 31.877304,115.55404 87.920075,125.72572 34.24148,6.21477 68.87582,-8.67799 87.92007,-37.80565 v 0 c -17.79765,19.65311 -44.00427,29.48059 -70.33606,26.37602 -60.103298,-7.08627 -95.781551,-68.17543 -92.316066,-131.88011 3.096191,-56.91615 39.02269,-108.66554 92.316066,-108.14171 52.67252,0.51773 87.92008,51.99767 87.92008,108.14171 H 30.772034"
             style="fill:none;stroke:#000000;stroke-width:5.27525;stroke-linecap:round;stroke-linejoin:round;stroke-miterlimit:10"
             id="path244-5-7" />
        </g>
      </g>
      <g
         id="g353-3-2"
         transform="matrix(0.10778043,0,0,0.10778043,574.17513,595.44387)">
        <path
           d="M 0,562.25613 H 175.84015 V -0.432343 H 0 Z"
           style="fill:none;stroke:#ff0000;stroke-width:0;stroke-linecap:round;stroke-linejoin:round;stroke-miterlimit:10"
           id="path339-5-2" />
        <path
           d="m 52.752045,140.23978 v 213.64579 c 0,31.34357 28.970749,54.23453 61.544055,52.75205 16.72694,-0.76128 32.49759,-8.01579 43.96003,-20.22164 v 0 c -15.38092,17.62264 -40.8614,22.35473 -61.544048,11.42963 C 80.437134,389.24878 70.33606,372.29927 70.33606,353.88557 V 69.903717 c 0,43.244503 -15.044587,87.920073 -52.752045,87.920073 H 140.67212"
           style="fill:none;stroke:#000000;stroke-width:5.27525;stroke-linecap:round;stroke-linejoin:round;stroke-miterlimit:10"
           id="path341-6-6" />
      </g>
      <g
         id="g337-2-1"
         transform="matrix(0.10765274,0,0,0.10765274,632.90651,595.47463)">
        <path
           d="M 0,562.25613 H 211.00818 V -0.432343 H 0 Z"
           style="fill:none;stroke:#ff0000;stroke-width:0;stroke-linecap:round;stroke-linejoin:round;stroke-miterlimit:10"
           id="path320-9-0" />
        <path
           d="m 96.712082,155.18617 c 32.199098,0 62.117218,16.62119 79.128068,43.96004 v -26.37602 c -24.77136,-11.58142 -51.78305,-17.58402 -79.128068,-17.58402 -39.512116,0 -74.065567,27.7544 -70.33606,64.18167 3.682938,35.97248 42.08519,52.8053 79.128068,61.54406 38.32495,9.04119 79.12807,25.10478 79.12807,61.54405 0,38.49585 -37.89643,64.18167 -79.12807,64.18167"
           style="fill:none;stroke:#000000;stroke-width:5.27525;stroke-linecap:round;stroke-linejoin:round;stroke-miterlimit:10"
           id="path322-1-6" />
        <path
           d="m 105.50409,406.63762 c -36.799256,0 -70.602784,-20.2821 -87.920075,-52.75205 v 26.37603 c 25.763168,17.9033 56.556351,27.14126 87.920075,26.37602 47.28833,-1.15376 90.73738,-30.06151 87.92007,-72.97368 -2.67158,-40.69272 -45.64184,-61.11359 -87.92007,-70.33606 -33.950226,-7.40582 -70.33606,-20.75238 -70.33606,-52.75204 0,-31.77442 28.617248,-55.38967 61.544052,-55.38967"
           style="fill:none;stroke:#000000;stroke-width:5.27525;stroke-linecap:round;stroke-linejoin:round;stroke-miterlimit:10"
           id="path324-2-1" />
      </g>
      <g
         id="g458-5"
         transform="matrix(0.10772567,0,0,0.10772567,475.68449,656.09065)">
        <path
           d="M 0,562.25613 H 246.17621 V -0.432343 H 0 Z"
           style="fill:none;stroke:#ff0000;stroke-width:0;stroke-linecap:round;stroke-linejoin:round;stroke-miterlimit:10"
           id="path438-9" />
        <path
           d="m 123.0881,155.18617 c -62.313655,0 -105.504085,59.67693 -105.504085,125.72573 0,66.04879 43.19043,125.72572 105.504085,125.72572 v 0 c 62.31366,0 105.50409,-59.67693 105.50409,-125.72572 0,-66.0488 -43.19043,-125.72573 -105.50409,-125.72573"
           style="fill:none;stroke:#000000;stroke-width:5.27525;stroke-linecap:round;stroke-linejoin:round;stroke-miterlimit:10"
           id="path440-4" />
        <path
           d="m 123.0881,155.18617 c -56.97546,0 -87.92007,62.22254 -87.92007,125.72573 0,63.50318 30.94461,125.72572 87.92007,125.72572"
           style="fill:none;stroke:#000000;stroke-width:5.27525;stroke-linecap:round;stroke-linejoin:round;stroke-miterlimit:10"
           id="path442-9" />
        <path
           d="m 123.0881,406.63762 c 56.97547,0 87.92008,-62.22254 87.92008,-125.72572 0,-63.50319 -30.94461,-125.72573 -87.92008,-125.72573"
           style="fill:none;stroke:#000000;stroke-width:5.27525;stroke-linecap:round;stroke-linejoin:round;stroke-miterlimit:10"
           id="path444-0" />
      </g>
      <g
         id="g483-9"
         transform="matrix(0.10778043,0,0,0.10778043,502.20399,656.09068)">
        <path
           d="M 0,562.25613 H 175.84015 V -0.432343 H 0 Z"
           style="fill:none;stroke:#ff0000;stroke-width:0;stroke-linecap:round;stroke-linejoin:round;stroke-miterlimit:10"
           id="path460-1" />
        <path
           d="m 131.88011,47.923691 v 0"
           style="fill:none;stroke:#000000;stroke-width:35.168;stroke-linecap:round;stroke-linejoin:round;stroke-miterlimit:10"
           id="path462-7" />
        <path
           d="M 17.584015,157.82379 H 123.0881"
           style="fill:none;stroke:#000000;stroke-width:5.27525;stroke-linecap:round;stroke-linejoin:round;stroke-miterlimit:10"
           id="path464-7" />
        <path
           d="M 70.33606,401.36237 V 87.487732 c 0,-20.462555 15.862625,-37.552124 35.16803,-35.16803 21.17959,2.615555 47.62007,21.784439 52.75204,0 C 161.63698,37.968567 142.72557,28.483261 123.0881,34.735687 84.049988,47.165115 56.308975,81.841385 52.752045,122.65576 v 278.70661"
           style="fill:none;stroke:#000000;stroke-width:5.27525;stroke-linecap:round;stroke-linejoin:round;stroke-miterlimit:10"
           id="path466-1" />
        <path
           d="M 52.750977,386.41501 21.100754,401.36237 H 101.98735 L 70.33017,386.41541"
           style="fill:none;stroke:#000000;stroke-width:5.27525;stroke-linecap:round;stroke-linejoin:round;stroke-miterlimit:10"
           id="path468-1" />
      </g>
      <g
         id="g526-5"
         transform="matrix(0.10778043,0,0,0.10778043,521.15611,716.73748)">
        <path
           d="M 0,562.25613 H 474.7684 V -0.432343 H 0 Z"
           style="fill:none;stroke:#ff0000;stroke-width:0;stroke-linecap:round;stroke-linejoin:round;stroke-miterlimit:10"
           id="path485-97" />
        <path
           d="M 52.752045,175.40781 V 401.36237"
           style="fill:none;stroke:#000000;stroke-width:5.27525;stroke-linecap:round;stroke-linejoin:round;stroke-miterlimit:10"
           id="path487-7" />
        <path
           d="M 70.33606,401.36237 V 157.82379"
           style="fill:none;stroke:#000000;stroke-width:5.27525;stroke-linecap:round;stroke-linejoin:round;stroke-miterlimit:10"
           id="path489-6" />
        <path
           d="m 70.33606,228.15985 c 12.325805,-43.19121 51.79654,-72.97368 96.71208,-72.97368 39.97463,0 79.12807,19.51589 79.12807,55.38967 v 190.78653"
           style="fill:none;stroke:#000000;stroke-width:5.27525;stroke-linecap:round;stroke-linejoin:round;stroke-miterlimit:10"
           id="path491-7" />
        <path
           d="m 167.04814,155.18617 c 32.9268,0 61.54405,23.61525 61.54405,55.38967 v 190.78653"
           style="fill:none;stroke:#000000;stroke-width:5.27525;stroke-linecap:round;stroke-linejoin:round;stroke-miterlimit:10"
           id="path493-3" />
        <path
           d="m 246.17621,228.15985 c 12.3258,-43.19121 51.79654,-72.97368 96.71208,-72.97368 39.97462,0 79.12807,19.51589 79.12807,55.38967 v 190.78653"
           style="fill:none;stroke:#000000;stroke-width:5.27525;stroke-linecap:round;stroke-linejoin:round;stroke-miterlimit:10"
           id="path495-6" />
        <path
           d="m 342.88829,155.18617 c 32.9268,0 61.54405,23.61525 61.54405,55.38967 v 190.78653"
           style="fill:none;stroke:#000000;stroke-width:5.27525;stroke-linecap:round;stroke-linejoin:round;stroke-miterlimit:10"
           id="path497-5" />
        <path
           d="M 52.750977,386.41609 21.100754,401.36237 H 101.98735 L 70.33017,386.41609"
           style="fill:none;stroke:#000000;stroke-width:5.27525;stroke-linecap:round;stroke-linejoin:round;stroke-miterlimit:10"
           id="path499-6" />
        <path
           d="m 228.59648,386.41621 -31.65558,14.94616 h 80.8866 l -31.65183,-14.94616"
           style="fill:none;stroke:#000000;stroke-width:5.27525;stroke-linecap:round;stroke-linejoin:round;stroke-miterlimit:10"
           id="path501-3" />
        <path
           d="m 404.42859,386.41621 -31.64754,14.94616 h 80.8866 l -31.64647,-14.94616"
           style="fill:none;stroke:#000000;stroke-width:5.27525;stroke-linecap:round;stroke-linejoin:round;stroke-miterlimit:10"
           id="path503-9" />
        <path
           d="M 52.750977,175.40781 H 21.100754 L 70.33606,157.82379"
           style="fill:none;stroke:#000000;stroke-width:5.27525;stroke-linecap:round;stroke-linejoin:round;stroke-miterlimit:10"
           id="path505-4" />
      </g>
      <g
         id="g560-8"
         transform="matrix(0.10778043,0,0,0.10778043,598.84635,716.73748)">
        <path
           d="M 0,562.25613 H 298.92825 V -0.432343 H 0 Z"
           style="fill:none;stroke:#ff0000;stroke-width:0;stroke-linecap:round;stroke-linejoin:round;stroke-miterlimit:10"
           id="path528-1" />
        <path
           d="m 52.752045,160.46143 v 238.2633"
           style="fill:none;stroke:#000000;stroke-width:5.27525;stroke-linecap:round;stroke-linejoin:round;stroke-miterlimit:10"
           id="path530-2" />
        <path
           d="m 70.33606,228.15985 c 12.325805,-43.19121 51.79654,-72.97368 96.71208,-72.97368 39.97463,0 79.12807,19.51589 79.12807,55.38967 v 188.14889"
           style="fill:none;stroke:#000000;stroke-width:5.27525;stroke-linecap:round;stroke-linejoin:round;stroke-miterlimit:10"
           id="path532-9" />
        <path
           d="m 167.04814,155.18617 c 32.9268,0 61.54405,23.61525 61.54405,55.38967 v 188.14889"
           style="fill:none;stroke:#000000;stroke-width:5.27525;stroke-linecap:round;stroke-linejoin:round;stroke-miterlimit:10"
           id="path534-3" />
        <path
           d="M 70.33606,398.72473 V 157.82379"
           style="fill:none;stroke:#000000;stroke-width:5.27525;stroke-linecap:round;stroke-linejoin:round;stroke-miterlimit:10"
           id="path536-9" />
        <path
           d="m 52.750977,386.41617 -31.650223,14.9462 H 101.98735 L 70.33017,386.41609"
           style="fill:none;stroke:#000000;stroke-width:5.27525;stroke-linecap:round;stroke-linejoin:round;stroke-miterlimit:10"
           id="path538-0" />
        <path
           d="m 228.59648,386.41621 -31.65558,14.94616 h 80.8866 l -31.65183,-14.94616"
           style="fill:none;stroke:#000000;stroke-width:5.27525;stroke-linecap:round;stroke-linejoin:round;stroke-miterlimit:10"
           id="path540-8" />
        <path
           d="M 52.750977,175.40762 21.100754,160.46143 70.33606,157.82379"
           style="fill:none;stroke:#000000;stroke-width:5.27525;stroke-linecap:round;stroke-linejoin:round;stroke-miterlimit:10"
           id="path542-8" />
      </g>
      <g
         id="g290-3-5"
         transform="matrix(0.10778043,0,0,0.10778043,549.57084,656.09067)">
        <path
           d="M 0,562.25613 H 298.92825 V -0.432343 H 0 Z"
           style="fill:none;stroke:#ff0000;stroke-width:0;stroke-linecap:round;stroke-linejoin:round;stroke-miterlimit:10"
           id="path258-6-0" />
        <path
           d="M 52.752045,52.319702 V 398.72473"
           style="fill:none;stroke:#000000;stroke-width:5.27525;stroke-linecap:round;stroke-linejoin:round;stroke-miterlimit:10"
           id="path260-0-9" />
        <path
           d="M 70.33606,398.72473 V 34.735687"
           style="fill:none;stroke:#000000;stroke-width:5.27525;stroke-linecap:round;stroke-linejoin:round;stroke-miterlimit:10"
           id="path262-6-6" />
        <path
           d="m 70.33606,210.57584 c 23.926376,-34.6819 63.36971,-55.38967 105.50409,-55.38967 37.77571,0 70.33606,27.56055 70.33606,64.18167 v 179.35689"
           style="fill:none;stroke:#000000;stroke-width:5.27525;stroke-linecap:round;stroke-linejoin:round;stroke-miterlimit:10"
           id="path264-2-3" />
        <path
           d="m 70.33606,210.57584 c 19.771789,-29.14492 52.70148,-46.59766 87.92007,-46.59766 36.40392,0 70.33606,21.6965 70.33606,55.38966 v 179.35689"
           style="fill:none;stroke:#000000;stroke-width:5.27525;stroke-linecap:round;stroke-linejoin:round;stroke-miterlimit:10"
           id="path266-6-8" />
        <path
           d="M 52.750977,386.41685 21.100754,401.36237 H 101.98735 L 70.33017,386.41522"
           style="fill:none;stroke:#000000;stroke-width:5.27525;stroke-linecap:round;stroke-linejoin:round;stroke-miterlimit:10"
           id="path268-1-5" />
        <path
           d="m 228.59648,386.41623 -31.65558,14.94614 h 80.8866 l -31.65183,-14.94614"
           style="fill:none;stroke:#000000;stroke-width:5.27525;stroke-linecap:round;stroke-linejoin:round;stroke-miterlimit:10"
           id="path270-8-6" />
        <path
           d="M 52.750977,52.319702 H 21.100754 L 70.33606,34.735687"
           style="fill:none;stroke:#000000;stroke-width:5.27525;stroke-linecap:round;stroke-linejoin:round;stroke-miterlimit:10"
           id="path272-7-1" />
      </g>
      <g
         id="g353-9-1"
         transform="matrix(0.10778043,0,0,0.10778043,530.61871,656.09067)">
        <path
           d="M 0,562.25613 H 175.84015 V -0.432343 H 0 Z"
           style="fill:none;stroke:#ff0000;stroke-width:0;stroke-linecap:round;stroke-linejoin:round;stroke-miterlimit:10"
           id="path339-2-5" />
        <path
           d="m 52.752045,140.23978 v 213.64579 c 0,31.34357 28.970749,54.23453 61.544055,52.75205 16.72694,-0.76128 32.49759,-8.01579 43.96003,-20.22164 v 0 c -15.38092,17.62264 -40.8614,22.35473 -61.544048,11.42963 C 80.437134,389.24878 70.33606,372.29927 70.33606,353.88557 V 69.903717 c 0,43.244503 -15.044587,87.920073 -52.752045,87.920073 H 140.67212"
           style="fill:none;stroke:#000000;stroke-width:5.27525;stroke-linecap:round;stroke-linejoin:round;stroke-miterlimit:10"
           id="path341-0-9" />
      </g>
      <g
         id="g367-3-2-8"
         transform="matrix(0.40686069,0,0,0.40686069,624.21646,621.16321)">
        <g
           id="g256-6-3-4"
           transform="matrix(0.26490746,0,0,0.26490746,-104.36122,85.846248)">
          <path
             d="M 0,562.25613 H 228.59219 V -0.432343 H 0 Z"
             style="fill:none;stroke:#ff0000;stroke-width:0;stroke-linecap:round;stroke-linejoin:round;stroke-miterlimit:10"
             id="path242-7-7-8" />
          <path
             d="m 193.42416,263.32788 c 0,-53.9089 -22.70143,-108.14171 -70.33606,-108.14171 -62.076274,0 -104.651409,59.75835 -105.504085,125.72573 -0.764847,59.17297 31.877304,115.55404 87.920075,125.72572 34.24148,6.21477 68.87582,-8.67799 87.92007,-37.80565 v 0 c -17.79765,19.65311 -44.00427,29.48059 -70.33606,26.37602 -60.103298,-7.08627 -95.781551,-68.17543 -92.316066,-131.88011 3.096191,-56.91615 39.02269,-108.66554 92.316066,-108.14171 52.67252,0.51773 87.92008,51.99767 87.92008,108.14171 H 30.772034"
             style="fill:none;stroke:#000000;stroke-width:5.27525;stroke-linecap:round;stroke-linejoin:round;stroke-miterlimit:10"
             id="path244-5-5-1" />
        </g>
      </g>
      <g
         id="g240-9-0"
         transform="matrix(0.10772567,0,0,0.10772567,416.94638,716.73746)">
        <path
           d="M 0,562.25613 H 246.17621 V -0.432343 H 0 Z"
           style="fill:none;stroke:#ff0000;stroke-width:0;stroke-linecap:round;stroke-linejoin:round;stroke-miterlimit:10"
           id="path223-2-3" />
        <path
           d="m 211.00818,368.83197 c -16.98438,21.005 -43.48195,31.93526 -70.33606,29.01364 C 85.828186,391.8788 51.715317,338.47435 48.356049,280.9119 44.594757,216.4606 81.584778,155.18617 140.67212,155.18617 c 23.88061,0 24.40172,34.88538 43.96004,43.0809 17.18916,7.20278 26.57888,-11.28572 17.58401,-17.58401 -18.64526,-13.05557 -38.75781,-25.49689 -61.54405,-25.49689 -68.555009,0 -113.651078,69.77483 -105.50409,143.30974 5.75859,51.97716 37.737823,99.1519 87.92007,108.14171 34.23207,6.13243 68.82256,-8.74147 87.92008,-37.80565 z"
           style="fill:none;stroke:#000000;stroke-width:5.27525;stroke-linecap:round;stroke-linejoin:round;stroke-miterlimit:10"
           id="path225-2-0" />
        <path
           d="m 184.63216,180.68306 v 0"
           style="fill:none;stroke:#000000;stroke-width:30.772;stroke-linecap:round;stroke-linejoin:round;stroke-miterlimit:10"
           id="path227-8-4" />
      </g>
      <g
         id="g458-9-4"
         transform="matrix(0.10772567,0,0,0.10772567,443.46588,716.73746)">
        <path
           d="M 0,562.25613 H 246.17621 V -0.432343 H 0 Z"
           style="fill:none;stroke:#ff0000;stroke-width:0;stroke-linecap:round;stroke-linejoin:round;stroke-miterlimit:10"
           id="path438-7-4" />
        <path
           d="m 123.0881,155.18617 c -62.313655,0 -105.504085,59.67693 -105.504085,125.72573 0,66.04879 43.19043,125.72572 105.504085,125.72572 v 0 c 62.31366,0 105.50409,-59.67693 105.50409,-125.72572 0,-66.0488 -43.19043,-125.72573 -105.50409,-125.72573"
           style="fill:none;stroke:#000000;stroke-width:5.27525;stroke-linecap:round;stroke-linejoin:round;stroke-miterlimit:10"
           id="path440-3-4" />
        <path
           d="m 123.0881,155.18617 c -56.97546,0 -87.92007,62.22254 -87.92007,125.72573 0,63.50318 30.94461,125.72572 87.92007,125.72572"
           style="fill:none;stroke:#000000;stroke-width:5.27525;stroke-linecap:round;stroke-linejoin:round;stroke-miterlimit:10"
           id="path442-6-7" />
        <path
           d="m 123.0881,406.63762 c 56.97547,0 87.92008,-62.22254 87.92008,-125.72572 0,-63.50319 -30.94461,-125.72573 -87.92008,-125.72573"
           style="fill:none;stroke:#000000;stroke-width:5.27525;stroke-linecap:round;stroke-linejoin:round;stroke-miterlimit:10"
           id="path444-1-6" />
      </g>
      <g
         id="g526-2-3"
         transform="matrix(0.10778043,0,0,0.10778043,469.98537,716.73748)">
        <path
           d="M 0,562.25613 H 474.7684 V -0.432343 H 0 Z"
           style="fill:none;stroke:#ff0000;stroke-width:0;stroke-linecap:round;stroke-linejoin:round;stroke-miterlimit:10"
           id="path485-9-1" />
        <path
           d="M 52.752045,175.40781 V 401.36237"
           style="fill:none;stroke:#000000;stroke-width:5.27525;stroke-linecap:round;stroke-linejoin:round;stroke-miterlimit:10"
           id="path487-3-7" />
        <path
           d="M 70.33606,401.36237 V 157.82379"
           style="fill:none;stroke:#000000;stroke-width:5.27525;stroke-linecap:round;stroke-linejoin:round;stroke-miterlimit:10"
           id="path489-1-5" />
        <path
           d="m 70.33606,228.15985 c 12.325805,-43.19121 51.79654,-72.97368 96.71208,-72.97368 39.97463,0 79.12807,19.51589 79.12807,55.38967 v 190.78653"
           style="fill:none;stroke:#000000;stroke-width:5.27525;stroke-linecap:round;stroke-linejoin:round;stroke-miterlimit:10"
           id="path491-9-9" />
        <path
           d="m 167.04814,155.18617 c 32.9268,0 61.54405,23.61525 61.54405,55.38967 v 190.78653"
           style="fill:none;stroke:#000000;stroke-width:5.27525;stroke-linecap:round;stroke-linejoin:round;stroke-miterlimit:10"
           id="path493-4-6" />
        <path
           d="m 246.17621,228.15985 c 12.3258,-43.19121 51.79654,-72.97368 96.71208,-72.97368 39.97462,0 79.12807,19.51589 79.12807,55.38967 v 190.78653"
           style="fill:none;stroke:#000000;stroke-width:5.27525;stroke-linecap:round;stroke-linejoin:round;stroke-miterlimit:10"
           id="path495-7-2" />
        <path
           d="m 342.88829,155.18617 c 32.9268,0 61.54405,23.61525 61.54405,55.38967 v 190.78653"
           style="fill:none;stroke:#000000;stroke-width:5.27525;stroke-linecap:round;stroke-linejoin:round;stroke-miterlimit:10"
           id="path497-8-1" />
        <path
           d="M 52.750977,386.41609 21.100754,401.36237 H 101.98735 L 70.33017,386.41609"
           style="fill:none;stroke:#000000;stroke-width:5.27525;stroke-linecap:round;stroke-linejoin:round;stroke-miterlimit:10"
           id="path499-4-7" />
        <path
           d="m 228.59648,386.41621 -31.65558,14.94616 h 80.8866 l -31.65183,-14.94616"
           style="fill:none;stroke:#000000;stroke-width:5.27525;stroke-linecap:round;stroke-linejoin:round;stroke-miterlimit:10"
           id="path501-5-8" />
        <path
           d="m 404.42859,386.41621 -31.64754,14.94616 h 80.8866 l -31.64647,-14.94616"
           style="fill:none;stroke:#000000;stroke-width:5.27525;stroke-linecap:round;stroke-linejoin:round;stroke-miterlimit:10"
           id="path503-0-5" />
        <path
           d="M 52.750977,175.40781 H 21.100754 L 70.33606,157.82379"
           style="fill:none;stroke:#000000;stroke-width:5.27525;stroke-linecap:round;stroke-linejoin:round;stroke-miterlimit:10"
           id="path505-3-7" />
      </g>
      <g
         id="g458-9-6-4"
         transform="matrix(0.10772567,0,0,0.10772567,572.32686,716.73746)">
        <path
           d="M 0,562.25613 H 246.17621 V -0.432343 H 0 Z"
           style="fill:none;stroke:#ff0000;stroke-width:0;stroke-linecap:round;stroke-linejoin:round;stroke-miterlimit:10"
           id="path438-7-1-1" />
        <path
           d="m 123.0881,155.18617 c -62.313655,0 -105.504085,59.67693 -105.504085,125.72573 0,66.04879 43.19043,125.72572 105.504085,125.72572 v 0 c 62.31366,0 105.50409,-59.67693 105.50409,-125.72572 0,-66.0488 -43.19043,-125.72573 -105.50409,-125.72573"
           style="fill:none;stroke:#000000;stroke-width:5.27525;stroke-linecap:round;stroke-linejoin:round;stroke-miterlimit:10"
           id="path440-3-0-8" />
        <path
           d="m 123.0881,155.18617 c -56.97546,0 -87.92007,62.22254 -87.92007,125.72573 0,63.50318 30.94461,125.72572 87.92007,125.72572"
           style="fill:none;stroke:#000000;stroke-width:5.27525;stroke-linecap:round;stroke-linejoin:round;stroke-miterlimit:10"
           id="path442-6-6-5" />
        <path
           d="m 123.0881,406.63762 c 56.97547,0 87.92008,-62.22254 87.92008,-125.72572 0,-63.50319 -30.94461,-125.72573 -87.92008,-125.72573"
           style="fill:none;stroke:#000000;stroke-width:5.27525;stroke-linecap:round;stroke-linejoin:round;stroke-miterlimit:10"
           id="path444-1-3-9" />
      </g>
      <g
         id="g337-20-7"
         transform="matrix(0.10765274,0,0,0.10765274,631.06496,716.80928)">
        <path
           d="M 0,562.25613 H 211.00818 V -0.432343 H 0 Z"
           style="fill:none;stroke:#ff0000;stroke-width:0;stroke-linecap:round;stroke-linejoin:round;stroke-miterlimit:10"
           id="path320-6-5" />
        <path
           d="m 96.712082,155.18617 c 32.199098,0 62.117218,16.62119 79.128068,43.96004 v -26.37602 c -24.77136,-11.58142 -51.78305,-17.58402 -79.128068,-17.58402 -39.512116,0 -74.065567,27.7544 -70.33606,64.18167 3.682938,35.97248 42.08519,52.8053 79.128068,61.54406 38.32495,9.04119 79.12807,25.10478 79.12807,61.54405 0,38.49585 -37.89643,64.18167 -79.12807,64.18167"
           style="fill:none;stroke:#000000;stroke-width:5.27525;stroke-linecap:round;stroke-linejoin:round;stroke-miterlimit:10"
           id="path322-15-3" />
        <path
           d="m 105.50409,406.63762 c -36.799256,0 -70.602784,-20.2821 -87.920075,-52.75205 v 26.37603 c 25.763168,17.9033 56.556351,27.14126 87.920075,26.37602 47.28833,-1.15376 90.73738,-30.06151 87.92007,-72.97368 -2.67158,-40.69272 -45.64184,-61.11359 -87.92007,-70.33606 -33.950226,-7.40582 -70.33606,-20.75238 -70.33606,-52.75204 0,-31.77442 28.617248,-55.38967 61.544052,-55.38967"
           style="fill:none;stroke:#000000;stroke-width:5.27525;stroke-linecap:round;stroke-linejoin:round;stroke-miterlimit:10"
           id="path324-5-8" />
      </g>
    </g>
  </g>
</svg>
