<?xml version="1.0" encoding="UTF-8" standalone="no"?>
<svg
   xmlns:dc="http://purl.org/dc/elements/1.1/"
   xmlns:cc="http://creativecommons.org/ns#"
   xmlns:rdf="http://www.w3.org/1999/02/22-rdf-syntax-ns#"
   xmlns:svg="http://www.w3.org/2000/svg"
   xmlns="http://www.w3.org/2000/svg"
   xmlns:sodipodi="http://sodipodi.sourceforge.net/DTD/sodipodi-0.dtd"
   xmlns:inkscape="http://www.inkscape.org/namespaces/inkscape"
   version="1.1"
   width="120mm"
   viewBox="0 0 120mm 200mm"
   height="200mm"
   id="svg248"
   sodipodi:docname="out.svg"
   inkscape:version="1.0.1 (3bc2e813f5, 2020-09-07)">
  <metadata
     id="metadata254">
    <rdf:RDF>
      <cc:Work
         rdf:about="">
        <dc:format>image/svg+xml</dc:format>
        <dc:type
           rdf:resource="http://purl.org/dc/dcmitype/StillImage" />
      </cc:Work>
    </rdf:RDF>
  </metadata>
  <defs
     id="defs252" />
  <sodipodi:namedview
     pagecolor="#ffffff"
     bordercolor="#666666"
     borderopacity="1"
     objecttolerance="10"
     gridtolerance="10"
     guidetolerance="10"
     inkscape:pageopacity="0"
     inkscape:pageshadow="2"
     inkscape:window-width="1366"
     inkscape:window-height="704"
     id="namedview250"
     showgrid="false"
     inkscape:zoom="0.30914003"
     inkscape:cx="1179.3973"
     inkscape:cy="195.74021"
     inkscape:window-x="0"
     inkscape:window-y="0"
     inkscape:window-maximized="1"
     inkscape:current-layer="svg248" />
  <g
     transform="translate(0, 0) scale(1) "
     id="g14">
    <!-- Original BoundingBox: 0.000000 -89.663544 199.252319 229.140167 -->
    <path
       d="M0.000000 318.663544L199.252319 318.663544L199.252319 -0.140167L0.000000 -0.140167Z"
       style="stroke:rgb(100.000000%,0.000000%,0.000000%); stroke-width: 0.000000;stroke-linecap: round;stroke-linejoin: round;stroke-miterlimit: 10.000000;fill: none;"
       id="path2" />
    <path
       d="M29.887848 227.505585L99.626160 19.785065L169.364471 227.505585"
       style="stroke:#000080;stroke-width:10;stroke-linecap:round;stroke-linejoin:round;stroke-miterlimit:10;fill:none;stroke-dasharray:none"
       id="path4" />
    <path
       d="M99.626160 19.785065L99.626160 49.672913L159.401855 227.505585"
       style="stroke:#000080;stroke-width:10;stroke-linecap:round;stroke-linejoin:round;stroke-miterlimit:10;fill:none;stroke-dasharray:none"
       id="path6" />
    <path
       d="M49.813080 169.224304L139.476624 169.224304"
       style="stroke:#000080;stroke-width:10;stroke-linecap:round;stroke-linejoin:round;stroke-miterlimit:10;fill:none;stroke-dasharray:none"
       id="path8" />
    <path
       d="M32.730286 219.036942L11.955109 227.505585L47.820587 227.505585L32.730286 219.036942"
       style="stroke:#000080;stroke-width:10;stroke-linecap:round;stroke-linejoin:round;stroke-miterlimit:10;fill:none;stroke-dasharray:none"
       id="path10" />
    <path
       d="M156.558960 219.037048L141.469116 227.505585L187.297211 227.505585L166.520523 219.036942"
       style="stroke:#000080;stroke-width:10;stroke-linecap:round;stroke-linejoin:round;stroke-miterlimit:10;fill:none;stroke-dasharray:none"
       id="path12" />
  </g>
  <g
     transform="translate(199.252319, 0) scale(1) "
     id="g20">
    <!-- Original BoundingBox: 0.000000 -89.663544 129.514008 229.140167 -->
    <path
       d="M0.000000 318.663544L129.514008 318.663544L129.514008 -0.140167L0.000000 -0.140167Z"
       style="stroke:rgb(100.000000%,0.000000%,0.000000%); stroke-width: 0.000000;stroke-linecap: round;stroke-linejoin: round;stroke-miterlimit: 10.000000;fill: none;"
       id="path16" />
    <path
       d="M109.588776 149.299072C109.588776 118.755783,96.726776 88.028976,69.738312 88.028976C34.567612 88.028976,10.445709 121.886398,9.962616 159.261688C9.529282 192.787460,28.023422 224.731415,59.775696 230.494400C79.175980 234.015518,98.798828 225.577682,109.588776 209.074768L109.588776 209.074768C99.505112 220.209671,84.657181 225.777649,69.738312 224.018692C35.685440 220.003799,15.471146 185.392380,17.434586 149.299072C19.188797 117.051956,39.543762 87.732193,69.738312 88.028976C99.581100 88.322296,119.551392 117.489410,119.551392 149.299072L17.434586 149.299072"
       style="stroke:#000080;stroke-width:10;stroke-linecap:round;stroke-linejoin:round;stroke-miterlimit:10;fill:none;stroke-dasharray:none"
       id="path18" />
  </g>
  <g
     transform="translate(328.766327, 0) scale(1) "
     id="g28">
    <!-- Original BoundingBox: 0.000000 -89.663544 119.551392 229.140167 -->
    <path
       d="M0.000000 318.663544L119.551392 318.663544L119.551392 -0.140167L0.000000 -0.140167Z"
       style="stroke:rgb(100.000000%,0.000000%,0.000000%); stroke-width: 0.000000;stroke-linecap: round;stroke-linejoin: round;stroke-miterlimit: 10.000000;fill: none;"
       id="path22" />
    <path
       d="M54.794388 88.028976C73.037506 88.028976,89.988281 97.446075,99.626160 112.935516L99.626160 97.991592C85.591385 91.429886,70.287308 88.028976,54.794388 88.028976C32.407928 88.028976,12.830887 103.753845,14.943924 124.392532C17.030579 144.773544,38.788223 154.310547,59.775696 159.261688C81.489548 164.384186,104.607468 173.485352,104.607468 194.130844C104.607468 215.941528,83.136398 230.494400,59.775696 230.494400"
       style="stroke:#000080;stroke-width:10;stroke-linecap:round;stroke-linejoin:round;stroke-miterlimit:10;fill:none;stroke-dasharray:none"
       id="path24" />
    <path
       d="M59.775696 230.494400C38.926254 230.494400,19.774124 219.003113,9.962616 200.606552L9.962616 215.550476C24.559311 225.693985,42.005875 230.927963,59.775696 230.494400C86.567947 229.840714,111.184982 213.462387,109.588776 189.149536C108.075119 166.094162,83.729370 154.524277,59.775696 149.299072C40.540436 145.103134,19.925232 137.541351,19.925232 119.411224C19.925232 101.408722,36.138962 88.028976,54.794388 88.028976"
       style="stroke:#000080;stroke-width:10;stroke-linecap:round;stroke-linejoin:round;stroke-miterlimit:10;fill:none;stroke-dasharray:none"
       id="path26" />
  </g>
  <g
     transform="translate(448.317719, 0) scale(1) "
     id="g34">
    <!-- Original BoundingBox: 0.000000 -89.663544 99.626160 229.140167 -->
    <path
       d="M0.000000 318.663544L99.626160 318.663544L99.626160 -0.140167L0.000000 -0.140167Z"
       style="stroke:rgb(100.000000%,0.000000%,0.000000%); stroke-width: 0.000000;stroke-linecap: round;stroke-linejoin: round;stroke-miterlimit: 10.000000;fill: none;"
       id="path30" />
    <path
       d="M29.887848 79.560760L29.887848 200.606552C29.887848 218.364960,46.301865 231.334335,64.757004 230.494400C74.234024 230.063080,83.169235 225.952881,89.663544 219.037384L89.663544 219.037384C80.949127 229.021881,66.512604 231.702942,54.794388 225.513092C45.573456 220.642365,39.850464 211.039230,39.850464 200.606552L39.850464 39.710297C39.850464 64.211441,31.326614 89.523376,9.962616 89.523376L79.700928 89.523376"
       style="stroke:#000080;stroke-width:10;stroke-linecap:round;stroke-linejoin:round;stroke-miterlimit:10;fill:none;stroke-dasharray:none"
       id="path32" />
  </g>
  <g
     transform="translate(547.943879, 0) scale(1) "
     id="g52">
    <!-- Original BoundingBox: 0.000000 -89.663544 169.364471 229.140167 -->
    <path
       d="M0.000000 318.663544L169.364471 318.663544L169.364471 -0.140167L0.000000 -0.140167Z"
       style="stroke:rgb(100.000000%,0.000000%,0.000000%); stroke-width: 0.000000;stroke-linecap: round;stroke-linejoin: round;stroke-miterlimit: 10.000000;fill: none;"
       id="path36" />
    <path
       d="M29.887848 29.747681L29.887848 226.011169"
       style="stroke:#000080;stroke-width:10;stroke-linecap:round;stroke-linejoin:round;stroke-miterlimit:10;fill:none;stroke-dasharray:none"
       id="path38" />
    <path
       d="M39.850464 226.011169L39.850464 19.785065"
       style="stroke:#000080;stroke-width:10;stroke-linecap:round;stroke-linejoin:round;stroke-miterlimit:10;fill:none;stroke-dasharray:none"
       id="path40" />
    <path
       d="M39.850464 119.411224C53.406479 99.761414,75.753983 88.028976,99.626160 88.028976C121.028824 88.028976,139.476624 103.644012,139.476624 124.392532L139.476624 226.011169"
       style="stroke:#000080;stroke-width:10;stroke-linecap:round;stroke-linejoin:round;stroke-miterlimit:10;fill:none;stroke-dasharray:none"
       id="path42" />
    <path
       d="M39.850464 119.411224C51.052612 102.898529,69.709671 93.010284,89.663544 93.010284C110.289001 93.010284,129.514008 105.302917,129.514008 124.392532L129.514008 226.011169"
       style="stroke:#000080;stroke-width:10;stroke-linecap:round;stroke-linejoin:round;stroke-miterlimit:10;fill:none;stroke-dasharray:none"
       id="path44" />
    <path
       d="M29.887238 219.037857L11.955109 227.505585L57.783203 227.505585L39.847137 219.036942"
       style="stroke:#000080;stroke-width:10;stroke-linecap:round;stroke-linejoin:round;stroke-miterlimit:10;fill:none;stroke-dasharray:none"
       id="path46" />
    <path
       d="M129.516434 219.037521L111.581268 227.505585L157.409363 227.505585L139.476318 219.037521"
       style="stroke:#000080;stroke-width:10;stroke-linecap:round;stroke-linejoin:round;stroke-miterlimit:10;fill:none;stroke-dasharray:none"
       id="path48" />
    <path
       d="M29.887238 29.747681L11.955109 29.747681L39.850464 19.785065"
       style="stroke:#000080;stroke-width:10;stroke-linecap:round;stroke-linejoin:round;stroke-miterlimit:10;fill:none;stroke-dasharray:none"
       id="path50" />
  </g>
  <g
     transform="translate(717.30835, 0) scale(1) "
     id="g58">
    <!-- Original BoundingBox: 0.000000 -89.663544 129.514008 229.140167 -->
    <path
       d="M0.000000 318.663544L129.514008 318.663544L129.514008 -0.140167L0.000000 -0.140167Z"
       style="stroke:rgb(100.000000%,0.000000%,0.000000%); stroke-width: 0.000000;stroke-linecap: round;stroke-linejoin: round;stroke-miterlimit: 10.000000;fill: none;"
       id="path54" />
    <path
       d="M109.588776 149.299072C109.588776 118.755783,96.726776 88.028976,69.738312 88.028976C34.567612 88.028976,10.445709 121.886398,9.962616 159.261688C9.529282 192.787460,28.023422 224.731415,59.775696 230.494400C79.175980 234.015518,98.798828 225.577682,109.588776 209.074768L109.588776 209.074768C99.505112 220.209671,84.657181 225.777649,69.738312 224.018692C35.685440 220.003799,15.471146 185.392380,17.434586 149.299072C19.188797 117.051956,39.543762 87.732193,69.738312 88.028976C99.581100 88.322296,119.551392 117.489410,119.551392 149.299072L17.434586 149.299072"
       style="stroke:#000080;stroke-width:10;stroke-linecap:round;stroke-linejoin:round;stroke-miterlimit:10;fill:none;stroke-dasharray:none"
       id="path56" />
  </g>
  <g
     transform="translate(846.822358, 0) scale(1) "
     id="g64">
    <!-- Original BoundingBox: 0.000000 -89.663544 99.626160 229.140167 -->
    <path
       d="M0.000000 318.663544L99.626160 318.663544L99.626160 -0.140167L0.000000 -0.140167Z"
       style="stroke:rgb(100.000000%,0.000000%,0.000000%); stroke-width: 0.000000;stroke-linecap: round;stroke-linejoin: round;stroke-miterlimit: 10.000000;fill: none;"
       id="path60" />
    <path
       d="M29.887848 79.560760L29.887848 200.606552C29.887848 218.364960,46.301865 231.334335,64.757004 230.494400C74.234024 230.063080,83.169235 225.952881,89.663544 219.037384L89.663544 219.037384C80.949127 229.021881,66.512604 231.702942,54.794388 225.513092C45.573456 220.642365,39.850464 211.039230,39.850464 200.606552L39.850464 39.710297C39.850464 64.211441,31.326614 89.523376,9.962616 89.523376L79.700928 89.523376"
       style="stroke:#000080;stroke-width:10;stroke-linecap:round;stroke-linejoin:round;stroke-miterlimit:10;fill:none;stroke-dasharray:none"
       id="path62" />
  </g>
  <path
     d="m 946.44852,318.66354 h 69.73828 V -0.140167 h -69.73828 z"
     style="fill:none;stroke:#ff0000;stroke-width:0;stroke-linecap:round;stroke-linejoin:round;stroke-miterlimit:10"
     id="path66" />
  <path
     d="m 981.31768,29.747681 v 0"
     style="fill:none;stroke:#000080;stroke-width:7.47205;stroke-linecap:round;stroke-linejoin:round;stroke-miterlimit:10;fill-opacity:1;stroke-opacity:1"
     id="path68" />
  <path
     d="M 976.33637,99.485992 V 226.01117"
     style="fill:none;stroke:#000080;stroke-width:10;stroke-linecap:round;stroke-linejoin:round;stroke-miterlimit:10;stroke-dasharray:none"
     id="path70" />
  <path
     d="M 986.29898,226.01117 V 89.523376"
     style="fill:none;stroke:#000080;stroke-width:10;stroke-linecap:round;stroke-linejoin:round;stroke-miterlimit:10;stroke-dasharray:none"
     id="path72" />
  <path
     d="m 976.33576,219.03744 -17.93213,8.46814 h 45.82807 l -17.93604,-8.46814"
     style="fill:none;stroke:#000080;stroke-width:10;stroke-linecap:round;stroke-linejoin:round;stroke-miterlimit:10;stroke-dasharray:none"
     id="path74" />
  <path
     d="m 976.33576,99.485992 h -17.93213 l 27.89535,-9.962616"
     style="fill:none;stroke:#000080;stroke-width:10;stroke-linecap:round;stroke-linejoin:round;stroke-miterlimit:10;stroke-dasharray:none"
     id="path76" />
  <g
     transform="translate(1016.18683, 0) scale(1) "
     id="g84">
    <!-- Original BoundingBox: 0.000000 -89.663544 139.476624 229.140167 -->
    <path
       d="M0.000000 318.663544L139.476624 318.663544L139.476624 -0.140167L0.000000 -0.140167Z"
       style="stroke:rgb(100.000000%,0.000000%,0.000000%); stroke-width: 0.000000;stroke-linecap: round;stroke-linejoin: round;stroke-miterlimit: 10.000000;fill: none;"
       id="path80" />
    <path
       d="M119.551392 209.074768C109.928513 220.975616,94.915726 227.168396,79.700928 225.513092C48.627884 222.132462,29.300476 191.874985,27.397202 159.261688C25.266159 122.745377,46.223679 88.028976,79.700928 88.028976C93.231018 88.028976,93.526276 107.794067,104.607468 112.437424C114.346375 116.518326,119.666336 106.043243,114.570084 102.474808C104.006195 95.077881,92.610977 88.028976,79.700928 88.028976C40.859558 88.028976,15.309372 127.561462,19.925232 169.224304C23.187881 198.673126,41.306442 225.401031,69.738312 230.494400C89.133255 233.968872,108.731262 225.541718,119.551392 209.074768Z"
       style="stroke:#000080;stroke-width:10;stroke-linecap:round;stroke-linejoin:round;stroke-miterlimit:10;fill:none;stroke-dasharray:none"
       id="path82" />
  </g>
  <g
     transform="translate(1155.663454, 0) scale(1) "
     id="g92">
    <!-- Original BoundingBox: 0.000000 -89.663544 119.551392 229.140167 -->
    <path
       d="M0.000000 318.663544L119.551392 318.663544L119.551392 -0.140167L0.000000 -0.140167Z"
       style="stroke:rgb(100.000000%,0.000000%,0.000000%); stroke-width: 0.000000;stroke-linecap: round;stroke-linejoin: round;stroke-miterlimit: 10.000000;fill: none;"
       id="path86" />
    <path
       d="M54.794388 88.028976C73.037506 88.028976,89.988281 97.446075,99.626160 112.935516L99.626160 97.991592C85.591385 91.429886,70.287308 88.028976,54.794388 88.028976C32.407928 88.028976,12.830887 103.753845,14.943924 124.392532C17.030579 144.773544,38.788223 154.310547,59.775696 159.261688C81.489548 164.384186,104.607468 173.485352,104.607468 194.130844C104.607468 215.941528,83.136398 230.494400,59.775696 230.494400"
       style="stroke:#000080;stroke-width:10;stroke-linecap:round;stroke-linejoin:round;stroke-miterlimit:10;fill:none;stroke-dasharray:none"
       id="path88" />
    <path
       d="M59.775696 230.494400C38.926254 230.494400,19.774124 219.003113,9.962616 200.606552L9.962616 215.550476C24.559311 225.693985,42.005875 230.927963,59.775696 230.494400C86.567947 229.840714,111.184982 213.462387,109.588776 189.149536C108.075119 166.094162,83.729370 154.524277,59.775696 149.299072C40.540436 145.103134,19.925232 137.541351,19.925232 119.411224C19.925232 101.408722,36.138962 88.028976,54.794388 88.028976"
       style="stroke:#000080;stroke-width:10;stroke-linecap:round;stroke-linejoin:round;stroke-miterlimit:10;fill:none;stroke-dasharray:none"
       id="path90" />
  </g>
  <g
     transform="translate(0, 230) scale(1) "
     id="g102">
    <!-- Original BoundingBox: 0.000000 -89.663544 139.476624 229.140167 -->
    <path
       d="M0.000000 318.663544L139.476624 318.663544L139.476624 -0.140167L0.000000 -0.140167Z"
       style="stroke:rgb(100.000000%,0.000000%,0.000000%); stroke-width: 0.000000;stroke-linecap: round;stroke-linejoin: round;stroke-miterlimit: 10.000000;fill: none;"
       id="path94" />
    <path
       d="M69.738312 88.028976C34.433121 88.028976,9.962616 121.840271,9.962616 159.261688C9.962616 196.683105,34.433121 230.494400,69.738312 230.494400L69.738312 230.494400C105.043503 230.494400,129.514008 196.683105,129.514008 159.261688C129.514008 121.840271,105.043503 88.028976,69.738312 88.028976"
       style="stroke:#000080;stroke-width:10;stroke-linecap:round;stroke-linejoin:round;stroke-miterlimit:10;fill:none;stroke-dasharray:none"
       id="path96" />
    <path
       d="M69.738312 88.028976C37.457596 88.028976,19.925232 123.282532,19.925232 159.261688C19.925232 195.240845,37.457596 230.494400,69.738312 230.494400"
       style="stroke:#000080;stroke-width:10;stroke-linecap:round;stroke-linejoin:round;stroke-miterlimit:10;fill:none;stroke-dasharray:none"
       id="path98" />
    <path
       d="M69.738312 230.494400C102.019028 230.494400,119.551392 195.240845,119.551392 159.261688C119.551392 123.282532,102.019028 88.028976,69.738312 88.028976"
       style="stroke:#000080;stroke-width:10;stroke-linecap:round;stroke-linejoin:round;stroke-miterlimit:10;fill:none;stroke-dasharray:none"
       id="path100" />
  </g>
  <g
     transform="translate(139.476624, 230) scale(1) "
     id="g112">
    <!-- Original BoundingBox: 0.000000 -89.663544 99.626160 229.140167 -->
    <path
       d="M0.000000 318.663544L99.626160 318.663544L99.626160 -0.140167L0.000000 -0.140167Z"
       style="stroke:rgb(100.000000%,0.000000%,0.000000%); stroke-width: 0.000000;stroke-linecap: round;stroke-linejoin: round;stroke-miterlimit: 10.000000;fill: none;"
       id="path104" />
    <path
       d="M9.962616 89.523376L69.738312 89.523376"
       style="stroke:#000080;stroke-width:10;stroke-linecap:round;stroke-linejoin:round;stroke-miterlimit:10;fill:none;stroke-dasharray:none"
       id="path106" />
    <path
       d="M39.850464 227.505585L39.850464 49.672913C39.850464 38.079407,48.837784 28.396912,59.775696 29.747681C71.775467 31.229584,86.755905 42.090134,89.663544 29.747681C91.579025 21.616730,80.864349 16.242615,69.738312 19.785065C47.620392 26.827240,31.903107 46.473846,29.887848 69.598145L29.887848 227.505585"
       style="stroke:#000080;stroke-width:10;stroke-linecap:round;stroke-linejoin:round;stroke-miterlimit:10;fill:none;stroke-dasharray:none"
       id="path108" />
    <path
       d="M29.887238 219.036819L11.955109 227.505585L57.783203 227.505585L39.847137 219.037048"
       style="stroke:#000080;stroke-width:10;stroke-linecap:round;stroke-linejoin:round;stroke-miterlimit:10;fill:none;stroke-dasharray:none"
       id="path110" />
  </g>
  <g
     transform="translate(239.10278399999999, 230) scale(1) "
     id="g116">
    <!-- Original BoundingBox: 0.000000 -89.663544 79.700928 229.140167 -->
    <path
       d="M0.000000 318.663544L79.700928 318.663544L79.700928 -0.140167L0.000000 -0.140167Z"
       style="stroke:rgb(100.000000%,0.000000%,0.000000%); stroke-width: 0.000000;stroke-linecap: round;stroke-linejoin: round;stroke-miterlimit: 10.000000;fill: none;"
       id="path114" />
  </g>
  <g
     transform="translate(318.803712, 230) scale(1) "
     id="g122">
    <!-- Original BoundingBox: 0.000000 -89.663544 99.626160 229.140167 -->
    <path
       d="M0.000000 318.663544L99.626160 318.663544L99.626160 -0.140167L0.000000 -0.140167Z"
       style="stroke:rgb(100.000000%,0.000000%,0.000000%); stroke-width: 0.000000;stroke-linecap: round;stroke-linejoin: round;stroke-miterlimit: 10.000000;fill: none;"
       id="path118" />
    <path
       d="M29.887848 79.560760L29.887848 200.606552C29.887848 218.364960,46.301865 231.334335,64.757004 230.494400C74.234024 230.063080,83.169235 225.952881,89.663544 219.037384L89.663544 219.037384C80.949127 229.021881,66.512604 231.702942,54.794388 225.513092C45.573456 220.642365,39.850464 211.039230,39.850464 200.606552L39.850464 39.710297C39.850464 64.211441,31.326614 89.523376,9.962616 89.523376L79.700928 89.523376"
       style="stroke:#000080;stroke-width:10;stroke-linecap:round;stroke-linejoin:round;stroke-miterlimit:10;fill:none;stroke-dasharray:none"
       id="path120" />
  </g>
  <g
     transform="translate(418.42987200000005, 230) scale(1) "
     id="g140">
    <!-- Original BoundingBox: 0.000000 -89.663544 169.364471 229.140167 -->
    <path
       d="M0.000000 318.663544L169.364471 318.663544L169.364471 -0.140167L0.000000 -0.140167Z"
       style="stroke:rgb(100.000000%,0.000000%,0.000000%); stroke-width: 0.000000;stroke-linecap: round;stroke-linejoin: round;stroke-miterlimit: 10.000000;fill: none;"
       id="path124" />
    <path
       d="M29.887848 29.747681L29.887848 226.011169"
       style="stroke:#000080;stroke-width:10;stroke-linecap:round;stroke-linejoin:round;stroke-miterlimit:10;fill:none;stroke-dasharray:none"
       id="path126" />
    <path
       d="M39.850464 226.011169L39.850464 19.785065"
       style="stroke:#000080;stroke-width:10;stroke-linecap:round;stroke-linejoin:round;stroke-miterlimit:10;fill:none;stroke-dasharray:none"
       id="path128" />
    <path
       d="M39.850464 119.411224C53.406479 99.761414,75.753983 88.028976,99.626160 88.028976C121.028824 88.028976,139.476624 103.644012,139.476624 124.392532L139.476624 226.011169"
       style="stroke:#000080;stroke-width:10;stroke-linecap:round;stroke-linejoin:round;stroke-miterlimit:10;fill:none;stroke-dasharray:none"
       id="path130" />
    <path
       d="M39.850464 119.411224C51.052612 102.898529,69.709671 93.010284,89.663544 93.010284C110.289001 93.010284,129.514008 105.302917,129.514008 124.392532L129.514008 226.011169"
       style="stroke:#000080;stroke-width:10;stroke-linecap:round;stroke-linejoin:round;stroke-miterlimit:10;fill:none;stroke-dasharray:none"
       id="path132" />
    <path
       d="M29.887238 219.037857L11.955109 227.505585L57.783203 227.505585L39.847137 219.036942"
       style="stroke:#000080;stroke-width:10;stroke-linecap:round;stroke-linejoin:round;stroke-miterlimit:10;fill:none;stroke-dasharray:none"
       id="path134" />
    <path
       d="M129.516434 219.037521L111.581268 227.505585L157.409363 227.505585L139.476318 219.037521"
       style="stroke:#000080;stroke-width:10;stroke-linecap:round;stroke-linejoin:round;stroke-miterlimit:10;fill:none;stroke-dasharray:none"
       id="path136" />
    <path
       d="M29.887238 29.747681L11.955109 29.747681L39.850464 19.785065"
       style="stroke:#000080;stroke-width:10;stroke-linecap:round;stroke-linejoin:round;stroke-miterlimit:10;fill:none;stroke-dasharray:none"
       id="path138" />
  </g>
  <g
     transform="translate(587.794343, 230) scale(1) "
     id="g146">
    <!-- Original BoundingBox: 0.000000 -89.663544 129.514008 229.140167 -->
    <path
       d="M0.000000 318.663544L129.514008 318.663544L129.514008 -0.140167L0.000000 -0.140167Z"
       style="stroke:rgb(100.000000%,0.000000%,0.000000%); stroke-width: 0.000000;stroke-linecap: round;stroke-linejoin: round;stroke-miterlimit: 10.000000;fill: none;"
       id="path142" />
    <path
       d="M109.588776 149.299072C109.588776 118.755783,96.726776 88.028976,69.738312 88.028976C34.567612 88.028976,10.445709 121.886398,9.962616 159.261688C9.529282 192.787460,28.023422 224.731415,59.775696 230.494400C79.175980 234.015518,98.798828 225.577682,109.588776 209.074768L109.588776 209.074768C99.505112 220.209671,84.657181 225.777649,69.738312 224.018692C35.685440 220.003799,15.471146 185.392380,17.434586 149.299072C19.188797 117.051956,39.543762 87.732193,69.738312 88.028976C99.581100 88.322296,119.551392 117.489410,119.551392 149.299072L17.434586 149.299072"
       style="stroke:#000080;stroke-width:10;stroke-linecap:round;stroke-linejoin:round;stroke-miterlimit:10;fill:none;stroke-dasharray:none"
       id="path144" />
  </g>
  <g
     transform="translate(0, 460) scale(1) "
     id="g152">
    <!-- Original BoundingBox: 0.000000 -89.663544 219.177551 229.140167 -->
    <path
       d="M0.000000 318.663544L219.177551 318.663544L219.177551 -0.140167L0.000000 -0.140167Z"
       style="stroke:rgb(100.000000%,0.000000%,0.000000%); stroke-width: 0.000000;stroke-linecap: round;stroke-linejoin: round;stroke-miterlimit: 10.000000;fill: none;"
       id="path148" />
    <path
       d="M199.252319 179.186920L199.252319 199.112152C178.703415 220.947998,149.471375 232.458115,119.551392 230.494400C63.559998 226.819565,19.925232 180.460007,19.925232 124.392532C19.925232 68.325058,63.559998 21.965500,119.551392 18.290665C149.471375 16.326950,178.703415 27.837067,199.252319 49.672913L199.252319 69.598145C186.630234 37.015518,154.436127 16.290543,119.551392 18.290665C66.888718 21.310074,29.887848 69.837326,29.887848 124.392532C29.887848 178.947739,66.888718 227.474991,119.551392 230.494400C154.436127 232.494522,186.630234 211.769547,199.252319 179.186920Z"
       style="stroke:#000080;stroke-width:10;stroke-linecap:round;stroke-linejoin:round;stroke-miterlimit:10;fill:none;stroke-dasharray:none"
       id="path150" />
  </g>
  <g
     transform="translate(219.177551, 460) scale(1) "
     id="g162">
    <!-- Original BoundingBox: 0.000000 -89.663544 139.476624 229.140167 -->
    <path
       d="M0.000000 318.663544L139.476624 318.663544L139.476624 -0.140167L0.000000 -0.140167Z"
       style="stroke:rgb(100.000000%,0.000000%,0.000000%); stroke-width: 0.000000;stroke-linecap: round;stroke-linejoin: round;stroke-miterlimit: 10.000000;fill: none;"
       id="path154" />
    <path
       d="M69.738312 88.028976C34.433121 88.028976,9.962616 121.840271,9.962616 159.261688C9.962616 196.683105,34.433121 230.494400,69.738312 230.494400L69.738312 230.494400C105.043503 230.494400,129.514008 196.683105,129.514008 159.261688C129.514008 121.840271,105.043503 88.028976,69.738312 88.028976"
       style="stroke:#000080;stroke-width:10;stroke-linecap:round;stroke-linejoin:round;stroke-miterlimit:10;fill:none;stroke-dasharray:none"
       id="path156" />
    <path
       d="M69.738312 88.028976C37.457596 88.028976,19.925232 123.282532,19.925232 159.261688C19.925232 195.240845,37.457596 230.494400,69.738312 230.494400"
       style="stroke:#000080;stroke-width:10;stroke-linecap:round;stroke-linejoin:round;stroke-miterlimit:10;fill:none;stroke-dasharray:none"
       id="path158" />
    <path
       d="M69.738312 230.494400C102.019028 230.494400,119.551392 195.240845,119.551392 159.261688C119.551392 123.282532,102.019028 88.028976,69.738312 88.028976"
       style="stroke:#000080;stroke-width:10;stroke-linecap:round;stroke-linejoin:round;stroke-miterlimit:10;fill:none;stroke-dasharray:none"
       id="path160" />
  </g>
  <g
     transform="translate(358.654175, 460) scale(1) "
     id="g186">
    <!-- Original BoundingBox: 0.000000 -89.663544 268.990631 229.140167 -->
    <path
       d="M0.000000 318.663544L268.990631 318.663544L268.990631 -0.140167L0.000000 -0.140167Z"
       style="stroke:rgb(100.000000%,0.000000%,0.000000%); stroke-width: 0.000000;stroke-linecap: round;stroke-linejoin: round;stroke-miterlimit: 10.000000;fill: none;"
       id="path164" />
    <path
       d="M29.887848 99.485992L29.887848 227.505585"
       style="stroke:#000080;stroke-width:10;stroke-linecap:round;stroke-linejoin:round;stroke-miterlimit:10;fill:none;stroke-dasharray:none"
       id="path166" />
    <path
       d="M39.850464 227.505585L39.850464 89.523376"
       style="stroke:#000080;stroke-width:10;stroke-linecap:round;stroke-linejoin:round;stroke-miterlimit:10;fill:none;stroke-dasharray:none"
       id="path168" />
    <path
       d="M39.850464 129.373840C46.833923 104.902908,69.196945 88.028976,94.644852 88.028976C117.293365 88.028976,139.476624 99.086136,139.476624 119.411224L139.476624 227.505585"
       style="stroke:#000080;stroke-width:10;stroke-linecap:round;stroke-linejoin:round;stroke-miterlimit:10;fill:none;stroke-dasharray:none"
       id="path170" />
    <path
       d="M94.644852 88.028976C113.300278 88.028976,129.514008 101.408722,129.514008 119.411224L129.514008 227.505585"
       style="stroke:#000080;stroke-width:10;stroke-linecap:round;stroke-linejoin:round;stroke-miterlimit:10;fill:none;stroke-dasharray:none"
       id="path172" />
    <path
       d="M139.476624 129.373840C146.460083 104.902908,168.823105 88.028976,194.271011 88.028976C216.919525 88.028976,239.102783 99.086136,239.102783 119.411224L239.102783 227.505585"
       style="stroke:#000080;stroke-width:10;stroke-linecap:round;stroke-linejoin:round;stroke-miterlimit:10;fill:none;stroke-dasharray:none"
       id="path174" />
    <path
       d="M194.271011 88.028976C212.926437 88.028976,229.140167 101.408722,229.140167 119.411224L229.140167 227.505585"
       style="stroke:#000080;stroke-width:10;stroke-linecap:round;stroke-linejoin:round;stroke-miterlimit:10;fill:none;stroke-dasharray:none"
       id="path176" />
    <path
       d="M29.887238 219.037445L11.955109 227.505585L57.783203 227.505585L39.847137 219.037445"
       style="stroke:#000080;stroke-width:10;stroke-linecap:round;stroke-linejoin:round;stroke-miterlimit:10;fill:none;stroke-dasharray:none"
       id="path178" />
    <path
       d="M129.516434 219.037506L111.581268 227.505585L157.409363 227.505585L139.476318 219.037506"
       style="stroke:#000080;stroke-width:10;stroke-linecap:round;stroke-linejoin:round;stroke-miterlimit:10;fill:none;stroke-dasharray:none"
       id="path180" />
    <path
       d="M229.138031 219.037506L211.207428 227.505585L257.035522 227.505585L239.105515 219.037506"
       style="stroke:#000080;stroke-width:10;stroke-linecap:round;stroke-linejoin:round;stroke-miterlimit:10;fill:none;stroke-dasharray:none"
       id="path182" />
    <path
       d="M29.887238 99.485992L11.955109 99.485992L39.850464 89.523376"
       style="stroke:#000080;stroke-width:10;stroke-linecap:round;stroke-linejoin:round;stroke-miterlimit:10;fill:none;stroke-dasharray:none"
       id="path184" />
  </g>
  <g
     transform="translate(627.644806, 460) scale(1) "
     id="g210">
    <!-- Original BoundingBox: 0.000000 -89.663544 268.990631 229.140167 -->
    <path
       d="M0.000000 318.663544L268.990631 318.663544L268.990631 -0.140167L0.000000 -0.140167Z"
       style="stroke:rgb(100.000000%,0.000000%,0.000000%); stroke-width: 0.000000;stroke-linecap: round;stroke-linejoin: round;stroke-miterlimit: 10.000000;fill: none;"
       id="path188" />
    <path
       d="M29.887848 99.485992L29.887848 227.505585"
       style="stroke:#000080;stroke-width:10;stroke-linecap:round;stroke-linejoin:round;stroke-miterlimit:10;fill:none;stroke-dasharray:none"
       id="path190" />
    <path
       d="M39.850464 227.505585L39.850464 89.523376"
       style="stroke:#000080;stroke-width:10;stroke-linecap:round;stroke-linejoin:round;stroke-miterlimit:10;fill:none;stroke-dasharray:none"
       id="path192" />
    <path
       d="M39.850464 129.373840C46.833923 104.902908,69.196945 88.028976,94.644852 88.028976C117.293365 88.028976,139.476624 99.086136,139.476624 119.411224L139.476624 227.505585"
       style="stroke:#000080;stroke-width:10;stroke-linecap:round;stroke-linejoin:round;stroke-miterlimit:10;fill:none;stroke-dasharray:none"
       id="path194" />
    <path
       d="M94.644852 88.028976C113.300278 88.028976,129.514008 101.408722,129.514008 119.411224L129.514008 227.505585"
       style="stroke:#000080;stroke-width:10;stroke-linecap:round;stroke-linejoin:round;stroke-miterlimit:10;fill:none;stroke-dasharray:none"
       id="path196" />
    <path
       d="M139.476624 129.373840C146.460083 104.902908,168.823105 88.028976,194.271011 88.028976C216.919525 88.028976,239.102783 99.086136,239.102783 119.411224L239.102783 227.505585"
       style="stroke:#000080;stroke-width:10;stroke-linecap:round;stroke-linejoin:round;stroke-miterlimit:10;fill:none;stroke-dasharray:none"
       id="path198" />
    <path
       d="M194.271011 88.028976C212.926437 88.028976,229.140167 101.408722,229.140167 119.411224L229.140167 227.505585"
       style="stroke:#000080;stroke-width:10;stroke-linecap:round;stroke-linejoin:round;stroke-miterlimit:10;fill:none;stroke-dasharray:none"
       id="path200" />
    <path
       d="M29.887238 219.037445L11.955109 227.505585L57.783203 227.505585L39.847137 219.037445"
       style="stroke:#000080;stroke-width:10;stroke-linecap:round;stroke-linejoin:round;stroke-miterlimit:10;fill:none;stroke-dasharray:none"
       id="path202" />
    <path
       d="M129.516434 219.037506L111.581268 227.505585L157.409363 227.505585L139.476318 219.037506"
       style="stroke:#000080;stroke-width:10;stroke-linecap:round;stroke-linejoin:round;stroke-miterlimit:10;fill:none;stroke-dasharray:none"
       id="path204" />
    <path
       d="M229.138031 219.037506L211.207428 227.505585L257.035522 227.505585L239.105515 219.037506"
       style="stroke:#000080;stroke-width:10;stroke-linecap:round;stroke-linejoin:round;stroke-miterlimit:10;fill:none;stroke-dasharray:none"
       id="path206" />
    <path
       d="M29.887238 99.485992L11.955109 99.485992L39.850464 89.523376"
       style="stroke:#000080;stroke-width:10;stroke-linecap:round;stroke-linejoin:round;stroke-miterlimit:10;fill:none;stroke-dasharray:none"
       id="path208" />
  </g>
  <g
     transform="translate(896.635437, 460) scale(1) "
     id="g220">
    <!-- Original BoundingBox: 0.000000 -89.663544 139.476624 229.140167 -->
    <path
       d="M0.000000 318.663544L139.476624 318.663544L139.476624 -0.140167L0.000000 -0.140167Z"
       style="stroke:rgb(100.000000%,0.000000%,0.000000%); stroke-width: 0.000000;stroke-linecap: round;stroke-linejoin: round;stroke-miterlimit: 10.000000;fill: none;"
       id="path212" />
    <path
       d="M69.738312 88.028976C34.433121 88.028976,9.962616 121.840271,9.962616 159.261688C9.962616 196.683105,34.433121 230.494400,69.738312 230.494400L69.738312 230.494400C105.043503 230.494400,129.514008 196.683105,129.514008 159.261688C129.514008 121.840271,105.043503 88.028976,69.738312 88.028976"
       style="stroke:#000080;stroke-width:10;stroke-linecap:round;stroke-linejoin:round;stroke-miterlimit:10;fill:none;stroke-dasharray:none"
       id="path214" />
    <path
       d="M69.738312 88.028976C37.457596 88.028976,19.925232 123.282532,19.925232 159.261688C19.925232 195.240845,37.457596 230.494400,69.738312 230.494400"
       style="stroke:#000080;stroke-width:10;stroke-linecap:round;stroke-linejoin:round;stroke-miterlimit:10;fill:none;stroke-dasharray:none"
       id="path216" />
    <path
       d="M69.738312 230.494400C102.019028 230.494400,119.551392 195.240845,119.551392 159.261688C119.551392 123.282532,102.019028 88.028976,69.738312 88.028976"
       style="stroke:#000080;stroke-width:10;stroke-linecap:round;stroke-linejoin:round;stroke-miterlimit:10;fill:none;stroke-dasharray:none"
       id="path218" />
  </g>
  <g
     transform="translate(1036.112061, 460) scale(1) "
     id="g238">
    <!-- Original BoundingBox: 0.000000 -89.663544 169.364471 229.140167 -->
    <path
       d="M0.000000 318.663544L169.364471 318.663544L169.364471 -0.140167L0.000000 -0.140167Z"
       style="stroke:rgb(100.000000%,0.000000%,0.000000%); stroke-width: 0.000000;stroke-linecap: round;stroke-linejoin: round;stroke-miterlimit: 10.000000;fill: none;"
       id="path222" />
    <path
       d="M29.887848 91.017792L29.887848 226.011169"
       style="stroke:#000080;stroke-width:10;stroke-linecap:round;stroke-linejoin:round;stroke-miterlimit:10;fill:none;stroke-dasharray:none"
       id="path224" />
    <path
       d="M39.850464 129.373840C46.833923 104.902908,69.196945 88.028976,94.644852 88.028976C117.293365 88.028976,139.476624 99.086136,139.476624 119.411224L139.476624 226.011169"
       style="stroke:#000080;stroke-width:10;stroke-linecap:round;stroke-linejoin:round;stroke-miterlimit:10;fill:none;stroke-dasharray:none"
       id="path226" />
    <path
       d="M94.644852 88.028976C113.300278 88.028976,129.514008 101.408722,129.514008 119.411224L129.514008 226.011169"
       style="stroke:#000080;stroke-width:10;stroke-linecap:round;stroke-linejoin:round;stroke-miterlimit:10;fill:none;stroke-dasharray:none"
       id="path228" />
    <path
       d="M39.850464 226.011169L39.850464 89.523376"
       style="stroke:#000080;stroke-width:10;stroke-linecap:round;stroke-linejoin:round;stroke-miterlimit:10;fill:none;stroke-dasharray:none"
       id="path230" />
    <path
       d="M29.887238 219.037491L11.955109 227.505585L57.783203 227.505585L39.847137 219.037445"
       style="stroke:#000080;stroke-width:10;stroke-linecap:round;stroke-linejoin:round;stroke-miterlimit:10;fill:none;stroke-dasharray:none"
       id="path232" />
    <path
       d="M129.516434 219.037506L111.581268 227.505585L157.409363 227.505585L139.476318 219.037506"
       style="stroke:#000080;stroke-width:10;stroke-linecap:round;stroke-linejoin:round;stroke-miterlimit:10;fill:none;stroke-dasharray:none"
       id="path234" />
    <path
       d="M29.887238 99.485886L11.955109 91.017792L39.850464 89.523376"
       style="stroke:#000080;stroke-width:10;stroke-linecap:round;stroke-linejoin:round;stroke-miterlimit:10;fill:none;stroke-dasharray:none"
       id="path236" />
  </g>
  <g
     transform="translate(1205.4765320000001, 460) scale(1) "
     id="g246">
    <!-- Original BoundingBox: 0.000000 -89.663544 119.551392 229.140167 -->
    <path
       d="M0.000000 318.663544L119.551392 318.663544L119.551392 -0.140167L0.000000 -0.140167Z"
       style="stroke:rgb(100.000000%,0.000000%,0.000000%); stroke-width: 0.000000;stroke-linecap: round;stroke-linejoin: round;stroke-miterlimit: 10.000000;fill: none;"
       id="path240" />
    <path
       d="M54.794388 88.028976C73.037506 88.028976,89.988281 97.446075,99.626160 112.935516L99.626160 97.991592C85.591385 91.429886,70.287308 88.028976,54.794388 88.028976C32.407928 88.028976,12.830887 103.753845,14.943924 124.392532C17.030579 144.773544,38.788223 154.310547,59.775696 159.261688C81.489548 164.384186,104.607468 173.485352,104.607468 194.130844C104.607468 215.941528,83.136398 230.494400,59.775696 230.494400"
       style="stroke:#000080;stroke-width:10;stroke-linecap:round;stroke-linejoin:round;stroke-miterlimit:10;fill:none;stroke-dasharray:none"
       id="path242" />
    <path
       d="M59.775696 230.494400C38.926254 230.494400,19.774124 219.003113,9.962616 200.606552L9.962616 215.550476C24.559311 225.693985,42.005875 230.927963,59.775696 230.494400C86.567947 229.840714,111.184982 213.462387,109.588776 189.149536C108.075119 166.094162,83.729370 154.524277,59.775696 149.299072C40.540436 145.103134,19.925232 137.541351,19.925232 119.411224C19.925232 101.408722,36.138962 88.028976,54.794388 88.028976"
       style="stroke:#000080;stroke-width:10;stroke-linecap:round;stroke-linejoin:round;stroke-miterlimit:10;fill:none;stroke-dasharray:none"
       id="path244" />
  </g>
</svg>
